MATLAB/a_10k.csv

#Digilent WaveForms Oscilloscope Acquisition
#Device Name: Discovery2
#Serial Number: SN:210321A374C1
#Date Time: 2018-09-25 16:50:31.895
#Sample rate: 10000Hz
#Samples: 8192
#Trigger: Source: Channel 1 Type: Edge Condition: Rising Level: 25 mV Hyst.: Auto HoldOff: 0 s
#Channel 1: Range: 50 mV/div Offset: 0 V

Time (s),Channel 1 (V)
-0.40950000000000003,0.017378955889129726
-0.40939999999999999,0.017711802370640708
-0.4093,0.017711802370640708
-0.40920000000000001,0.018044648852151693
-0.40910000000000002,0.017711802370640708
-0.40900000000000003,0.017711802370640708
-0.40889999999999999,0.017378955889129574
-0.4088,0.017046109407618741
-0.40870000000000001,0.016713262926107756
-0.40860000000000002,0.017046109407618741
-0.40850000000000003,0.016713262926107756
-0.40839999999999999,0.016380416444596618
-0.4083,0.016047569963085789
-0.40820000000000001,0.015714723481574804
-0.40810000000000002,0.015381877000063819
-0.40800000000000003,0.015714723481574804
-0.40789999999999998,0.015714723481574957
-0.4078,0.016047569963085789
-0.40770000000000001,0.016047569963085789
-0.40760000000000002,0.016047569963085789
-0.40750000000000003,0.016380416444596771
-0.40739999999999998,0.016380416444596618
-0.4073,0.016047569963085789
-0.40720000000000001,0.016047569963085789
-0.40710000000000002,0.015714723481574804
-0.40700000000000003,0.015714723481574804
-0.40689999999999998,0.015714723481574652
-0.40679999999999999,0.015381877000063819
-0.40670000000000001,0.015381877000063819
-0.40660000000000002,0.015049030518552834
-0.40650000000000003,0.014716184037041851
-0.40639999999999998,0.0147161840370417
-0.40629999999999999,0.014383337555530866
-0.40620000000000001,0.014050491074019882
-0.40610000000000002,0.014383337555530866
-0.40600000000000003,0.014383337555530866
-0.40590000000000004,0.0147161840370417
-0.40579999999999999,0.014716184037041851
-0.40570000000000001,0.015049030518552834
-0.40560000000000002,0.014716184037041851
-0.40550000000000003,0.014383337555530866
-0.40540000000000004,0.014050491074020033
-0.40529999999999999,0.014050491074019882
-0.4052,0.014050491074019882
-0.40510000000000002,0.014383337555530866
-0.40500000000000003,0.014383337555530866
-0.40490000000000004,0.014050491074020033
-0.40479999999999999,0.014050491074019882
-0.4047,0.014050491074019882
-0.40460000000000002,0.013717644592508897
-0.40450000000000003,0.013717644592508897
-0.40440000000000004,0.013717644592508897
-0.40429999999999999,0.013384798110997912
-0.4042,0.013717644592508897
-0.40410000000000001,0.013717644592508897
-0.40400000000000003,0.013717644592508897
-0.40390000000000004,0.013717644592508897
-0.40379999999999999,0.014050491074019882
-0.4037,0.014050491074019882
-0.40360000000000001,0.014050491074019882
-0.40350000000000003,0.014050491074019882
-0.40340000000000004,0.014050491074019882
-0.40329999999999999,0.014383337555530866
-0.4032,0.014383337555530866
-0.40310000000000001,0.014383337555530866
-0.40300000000000002,0.014383337555530866
-0.40290000000000004,0.014383337555530866
-0.40279999999999999,0.014383337555530866
-0.4027,0.014050491074019882
-0.40260000000000001,0.014050491074019882
-0.40250000000000002,0.013717644592508897
-0.40240000000000004,0.013717644592508897
-0.40229999999999999,0.013717644592508897
-0.4022,0.014050491074019882
-0.40210000000000001,0.014050491074019882
-0.40200000000000002,0.013717644592508897
-0.40190000000000003,0.014050491074019731
-0.40179999999999999,0.013717644592508897
-0.4017,0.013717644592508897
-0.40160000000000001,0.013717644592508897
-0.40150000000000002,0.013717644592508897
-0.40140000000000003,0.013717644592508897
-0.40129999999999999,0.013717644592508897
-0.4012,0.013717644592508897
-0.40110000000000001,0.013717644592508897
-0.40100000000000002,0.013717644592508897
-0.40090000000000003,0.014050491074019731
-0.40079999999999999,0.014050491074019882
-0.4007,0.014050491074019882
-0.40060000000000001,0.014383337555530866
-0.40050000000000002,0.014383337555530866
-0.40040000000000003,0.014383337555530866
-0.40029999999999999,0.014383337555530866
-0.4002,0.014050491074019882
-0.40010000000000001,0.013717644592508897
-0.40000000000000002,0.013717644592508897
-0.39990000000000003,0.013717644592508897
-0.39979999999999999,0.013717644592508897
-0.3997,0.013717644592508897
-0.39960000000000001,0.013717644592508897
-0.39950000000000002,0.013717644592508897
-0.39940000000000003,0.013717644592508897
-0.39929999999999999,0.013717644592508897
-0.3992,0.014050491074019882
-0.39910000000000001,0.014383337555530866
-0.39900000000000002,0.015049030518552834
-0.39890000000000003,0.015049030518552834
-0.39879999999999999,0.015049030518553138
-0.3987,0.015714723481574804
-0.39860000000000001,0.015714723481574804
-0.39850000000000002,0.015714723481574804
-0.39840000000000003,0.015714723481574804
-0.39829999999999999,0.015714723481574804
-0.3982,0.015714723481574804
-0.39810000000000001,0.015714723481574804
-0.39800000000000002,0.015381877000063819
-0.39790000000000003,0.015049030518552834
-0.39779999999999999,0.01504903051855253
-0.3977,0.014383337555530866
-0.39760000000000001,0.014383337555530866
-0.39750000000000002,0.014383337555530866
-0.39740000000000003,0.014050491074019882
-0.39729999999999999,0.014383337555531017
-0.3972,0.014716184037041851
-0.39710000000000001,0.015049030518552834
-0.39700000000000002,0.015049030518552834
-0.39690000000000003,0.015381877000063819
-0.39679999999999999,0.015714723481574804
-0.3967,0.015714723481574804
-0.39660000000000001,0.015714723481574804
-0.39650000000000002,0.015714723481574804
-0.39640000000000003,0.015714723481574804
-0.39629999999999999,0.015714723481574804
-0.3962,0.015714723481574804
-0.39610000000000001,0.015714723481574804
-0.39600000000000002,0.015381877000063819
-0.39590000000000003,0.015049030518552834
-0.39579999999999999,0.015049030518552683
-0.3957,0.014716184037041851
-0.39560000000000001,0.014716184037041851
-0.39550000000000002,0.015049030518552834
-0.39540000000000003,0.015381877000063819
-0.39529999999999998,0.015049030518552985
-0.3952,0.015381877000063819
-0.39510000000000001,0.015381877000063819
-0.39500000000000002,0.015381877000063819
-0.39490000000000003,0.015381877000063819
-0.39479999999999998,0.015714723481574957
-0.3947,0.016047569963085789
-0.39460000000000001,0.016047569963085789
-0.39450000000000002,0.016380416444596771
-0.39440000000000003,0.016380416444596771
-0.39429999999999998,0.016047569963085942
-0.39419999999999999,0.016380416444596771
-0.39410000000000001,0.016047569963085789
-0.39400000000000002,0.015714723481574804
-0.39390000000000003,0.015381877000063819
-0.39379999999999998,0.015381877000063819
-0.39369999999999999,0.015381877000063819
-0.39360000000000001,0.015381877000063819
-0.39350000000000002,0.015381877000063819
-0.39340000000000003,0.016380416444596771
-0.39330000000000004,0.017046109407618439
-0.39319999999999999,0.017046109407618741
-0.3931,0.016713262926107756
-0.39300000000000002,0.017046109407618741
-0.39290000000000003,0.017046109407618741
-0.39280000000000004,0.017378955889129574
-0.39269999999999999,0.017378955889129726
-0.3926,0.017711802370640708
-0.39250000000000002,0.017711802370640708
-0.39240000000000003,0.017711802370640708
-0.39230000000000004,0.017378955889129879
-0.39219999999999999,0.017046109407618741
-0.3921,0.017046109407618741
-0.39200000000000002,0.017046109407618741
-0.39190000000000003,0.017046109407618741
-0.39180000000000004,0.017046109407618741
-0.39169999999999999,0.017046109407618741
-0.3916,0.016713262926107756
-0.39150000000000001,0.016380416444596771
-0.39140000000000003,0.016047569963085789
-0.39130000000000004,0.016047569963085789
-0.39119999999999999,0.016380416444596771
-0.3911,0.016380416444596771
-0.39100000000000001,0.016380416444596771
-0.39090000000000003,0.016047569963085789
-0.39080000000000004,0.016047569963085789
-0.39069999999999999,0.015714723481574804
-0.3906,0.015714723481574804
-0.39050000000000001,0.015714723481574804
-0.39040000000000002,0.015381877000063819
-0.39030000000000004,0.015381877000063819
-0.39019999999999999,0.015381877000063819
-0.3901,0.015381877000063819
-0.39000000000000001,0.015714723481574804
-0.38990000000000002,0.015381877000063819
-0.38980000000000004,0.015381877000063819
-0.38969999999999999,0.015381877000063819
-0.3896,0.015049030518552834
-0.38950000000000001,0.015049030518552834
-0.38940000000000002,0.014716184037041851
-0.38930000000000003,0.014716184037041851
-0.38919999999999999,0.014716184037041851
-0.3891,0.014716184037041851
-0.38900000000000001,0.014383337555530866
-0.38890000000000002,0.014050491074019882
-0.38880000000000003,0.013717644592509048
-0.38869999999999999,0.013051951629486929
-0.3886,0.013384798110997912
-0.38850000000000001,0.013384798110997912
-0.38840000000000002,0.013717644592508897
-0.38830000000000003,0.014050491074019731
-0.38819999999999999,0.014383337555530866
-0.3881,0.014383337555530866
-0.38800000000000001,0.014716184037041851
-0.38790000000000002,0.014716184037041851
-0.38780000000000003,0.014716184037041851
-0.38769999999999999,0.014716184037041851
-0.3876,0.014716184037041851
-0.38750000000000001,0.014716184037041851
-0.38740000000000002,0.014383337555530866
-0.38730000000000003,0.014383337555530866
-0.38719999999999999,0.014383337555530866
-0.3871,0.014050491074019882
-0.38700000000000001,0.013717644592508897
-0.38690000000000002,0.014050491074019882
-0.38680000000000003,0.013717644592508897
-0.38669999999999999,0.013717644592508897
-0.3866,0.013717644592508897
-0.38650000000000001,0.014050491074019882
-0.38640000000000002,0.014050491074019882
-0.38630000000000003,0.014050491074019882
-0.38619999999999999,0.014383337555530866
-0.3861,0.014383337555530866
-0.38600000000000001,0.014383337555530866
-0.38590000000000002,0.014716184037041851
-0.38580000000000003,0.014716184037041851
-0.38569999999999999,0.014383337555530866
-0.3856,0.014383337555530866
-0.38550000000000001,0.014383337555530866
-0.38540000000000002,0.014050491074019882
-0.38530000000000003,0.014050491074019882
-0.38519999999999999,0.014050491074019731
-0.3851,0.013717644592508897
-0.38500000000000001,0.013384798110997912
-0.38490000000000002,0.013384798110997912
-0.38480000000000003,0.013384798110997912
-0.38469999999999999,0.013384798110997912
-0.3846,0.013384798110997912
-0.38450000000000001,0.013717644592508897
-0.38440000000000002,0.014050491074019882
-0.38430000000000003,0.014383337555530866
-0.38419999999999999,0.014050491074020033
-0.3841,0.014383337555530866
-0.38400000000000001,0.014383337555530866
-0.38390000000000002,0.014716184037041851
-0.38380000000000003,0.014716184037041851
-0.38369999999999999,0.0147161840370417
-0.3836,0.014383337555530866
-0.38350000000000001,0.014383337555530866
-0.38340000000000002,0.014050491074019882
-0.38330000000000003,0.014050491074019882
-0.38319999999999999,0.014050491074019882
-0.3831,0.014050491074019882
-0.38300000000000001,0.014050491074019882
-0.38290000000000002,0.014050491074019882
-0.38280000000000003,0.014050491074019882
-0.38269999999999998,0.014383337555530866
-0.3826,0.014383337555530866
-0.38250000000000001,0.015049030518552834
-0.38240000000000002,0.015381877000063819
-0.38230000000000003,0.015714723481574804
-0.38219999999999998,0.015381877000063819
-0.3821,0.015381877000063819
-0.38200000000000001,0.016047569963085789
-0.38190000000000002,0.016047569963085789
-0.38180000000000003,0.015714723481574804
-0.38169999999999998,0.015714723481574804
-0.38159999999999999,0.015714723481574804
-0.38150000000000001,0.015714723481574804
-0.38140000000000002,0.015714723481574804
-0.38130000000000003,0.015714723481574804
-0.38119999999999998,0.015714723481574804
-0.38109999999999999,0.015714723481574804
-0.38100000000000001,0.015381877000063819
-0.38090000000000002,0.015049030518552834
-0.38080000000000003,0.015381877000063819
-0.38070000000000004,0.015714723481574652
-0.38059999999999999,0.015381877000063819
-0.3805,0.015714723481574804
-0.38040000000000002,0.015714723481574804
-0.38030000000000003,0.016047569963085789
-0.38020000000000004,0.015714723481574957
-0.38009999999999999,0.015381877000063819
-0.38,0.015381877000063819
-0.37990000000000002,0.015381877000063819
-0.37980000000000003,0.015381877000063819
-0.37970000000000004,0.015381877000063819
-0.37959999999999999,0.015714723481574804
-0.3795,0.015714723481574804
-0.37940000000000002,0.015381877000063819
-0.37930000000000003,0.015381877000063819
-0.37920000000000004,0.015381877000063819
-0.37909999999999999,0.015049030518552834
-0.379,0.015381877000063819
-0.37890000000000001,0.015381877000063819
-0.37880000000000003,0.015381877000063819
-0.37870000000000004,0.015714723481574652
-0.37859999999999999,0.015381877000063819
-0.3785,0.015381877000063819
-0.37840000000000001,0.015381877000063819
-0.37830000000000003,0.015381877000063819
-0.37820000000000004,0.015381877000063819
-0.37809999999999999,0.015381877000063819
-0.378,0.015714723481574804
-0.37790000000000001,0.015714723481574804
-0.37780000000000002,0.016047569963085789
-0.37770000000000004,0.016047569963085789
-0.37759999999999999,0.016047569963085789
-0.3775,0.016380416444596771
-0.37740000000000001,0.016380416444596771
-0.37730000000000002,0.016380416444596771
-0.37720000000000004,0.016380416444596771
-0.37709999999999999,0.016380416444596771
-0.377,0.016380416444596771
-0.37690000000000001,0.016047569963085789
-0.37680000000000002,0.016047569963085789
-0.37670000000000003,0.017378955889129119
-0.37659999999999999,0.017711802370640708
-0.3765,0.017378955889129726
-0.37640000000000001,0.017378955889129726
-0.37630000000000002,0.017046109407618741
-0.37620000000000003,0.017046109407618741
-0.37609999999999999,0.017046109407618741
-0.376,0.017046109407618741
-0.37590000000000001,0.017046109407618741
-0.37580000000000002,0.016713262926107756
-0.37570000000000003,0.016713262926107756
-0.37559999999999999,0.016713262926107756
-0.3755,0.016713262926107756
-0.37540000000000001,0.016380416444596771
-0.37530000000000002,0.016713262926107756
-0.37520000000000003,0.017046109407618741
-0.37509999999999999,0.017046109407618741
-0.375,0.017046109407618741
-0.37490000000000001,0.016713262926107756
-0.37480000000000002,0.016380416444596771
-0.37470000000000003,0.016047569963085789
-0.37459999999999999,0.016047569963085789
-0.3745,0.016047569963085789
-0.37440000000000001,0.015714723481574804
-0.37430000000000002,0.015381877000063819
-0.37420000000000003,0.015381877000063819
-0.37409999999999999,0.015381877000063668
-0.374,0.015049030518552834
-0.37390000000000001,0.015049030518552834
-0.37380000000000002,0.014716184037041851
-0.37370000000000003,0.014716184037041851
-0.37359999999999999,0.015049030518552834
-0.3735,0.015049030518552834
-0.37340000000000001,0.015381877000063819
-0.37330000000000002,0.015381877000063819
-0.37320000000000003,0.015381877000063819
-0.37309999999999999,0.015049030518552834
-0.373,0.015049030518552834
-0.37290000000000001,0.015049030518552834
-0.37280000000000002,0.015049030518552834
-0.37270000000000003,0.014716184037041851
-0.37259999999999999,0.0147161840370417
-0.3725,0.014383337555530866
-0.37240000000000001,0.014383337555530866
-0.37230000000000002,0.014383337555530866
-0.37220000000000003,0.014383337555530866
-0.37209999999999999,0.013717644592508897
-0.372,0.013717644592508897
-0.37190000000000001,0.013717644592508897
-0.37180000000000002,0.014050491074019882
-0.37170000000000003,0.014050491074019882
-0.37159999999999999,0.014050491074020033
-0.3715,0.014383337555530866
-0.37140000000000001,0.014383337555530866
-0.37130000000000002,0.014050491074019882
-0.37120000000000003,0.014383337555530866
-0.37109999999999999,0.014383337555530715
-0.371,0.014050491074019882
-0.37090000000000001,0.014050491074019882
-0.37080000000000002,0.014050491074019882
-0.37070000000000003,0.014383337555530866
-0.37059999999999998,0.014050491074019882
-0.3705,0.014050491074019882
-0.37040000000000001,0.014050491074019882
-0.37030000000000002,0.013717644592508897
-0.37020000000000003,0.014050491074019882
-0.37009999999999998,0.013717644592509048
-0.37,0.014050491074019882
-0.36990000000000001,0.014050491074019882
-0.36980000000000002,0.014383337555530866
-0.36970000000000003,0.014050491074019882
-0.36959999999999998,0.013717644592509048
-0.3695,0.014050491074019882
-0.36940000000000001,0.013717644592508897
-0.36930000000000002,0.013717644592508897
-0.36920000000000003,0.013717644592508897
-0.36909999999999998,0.013717644592508897
-0.36899999999999999,0.013717644592508897
-0.36890000000000001,0.013717644592508897
-0.36880000000000002,0.013384798110997912
-0.36870000000000003,0.013717644592508897
-0.36860000000000004,0.014050491074019731
-0.36849999999999999,0.013717644592508897
-0.36840000000000001,0.013717644592508897
-0.36830000000000002,0.013717644592508897
-0.36820000000000003,0.013384798110997912
-0.36810000000000004,0.013717644592508746
-0.36799999999999999,0.013717644592508897
-0.3679,0.013717644592508897
-0.36780000000000002,0.013717644592508897
-0.36770000000000003,0.013717644592508897
-0.36760000000000004,0.013717644592508897
-0.36749999999999999,0.013717644592508897
-0.3674,0.014050491074019882
-0.36730000000000002,0.014050491074019882
-0.36720000000000003,0.014383337555530866
-0.36710000000000004,0.014383337555530866
-0.36699999999999999,0.014383337555530866
-0.3669,0.014050491074019882
-0.36680000000000001,0.013717644592508897
-0.36670000000000003,0.013717644592508897
-0.36660000000000004,0.014050491074019731
-0.36649999999999999,0.014050491074019882
-0.3664,0.014383337555530866
-0.36630000000000001,0.014383337555530866
-0.36620000000000003,0.014050491074019882
-0.36610000000000004,0.014050491074019882
-0.36599999999999999,0.014383337555530866
-0.3659,0.014383337555530866
-0.36580000000000001,0.015049030518552834
-0.36570000000000003,0.015049030518552834
-0.36560000000000004,0.015049030518552834
-0.36549999999999999,0.014716184037041851
-0.3654,0.015049030518552834
-0.36530000000000001,0.015049030518552834
-0.36520000000000002,0.015381877000063819
-0.36510000000000004,0.015049030518552985
-0.36499999999999999,0.015049030518552834
-0.3649,0.015049030518552834
-0.36480000000000001,0.015049030518552834
-0.36470000000000002,0.015049030518552834
-0.36460000000000004,0.015381877000063668
-0.36449999999999999,0.015381877000063819
-0.3644,0.015049030518552834
-0.36430000000000001,0.015049030518552834
-0.36420000000000002,0.015049030518552834
-0.36410000000000003,0.015049030518552834
-0.36399999999999999,0.015049030518552834
-0.3639,0.015381877000063819
-0.36380000000000001,0.015381877000063819
-0.36370000000000002,0.015381877000063819
-0.36360000000000003,0.015381877000063819
-0.36349999999999999,0.015049030518552834
-0.3634,0.015049030518552834
-0.36330000000000001,0.015049030518552834
-0.36320000000000002,0.015049030518552834
-0.36310000000000003,0.015049030518552834
-0.36299999999999999,0.015049030518552834
-0.3629,0.015714723481574804
-0.36280000000000001,0.015714723481574804
-0.36270000000000002,0.015714723481574804
-0.36260000000000003,0.015381877000063819
-0.36249999999999999,0.015381877000063819
-0.3624,0.015381877000063819
-0.36230000000000001,0.015381877000063819
-0.36220000000000002,0.015381877000063819
-0.36210000000000003,0.015714723481574804
-0.36199999999999999,0.015714723481574804
-0.3619,0.015714723481574804
-0.36180000000000001,0.015714723481574804
-0.36170000000000002,0.015714723481574804
-0.36160000000000003,0.015714723481574804
-0.36149999999999999,0.015714723481574804
-0.3614,0.015714723481574804
-0.36130000000000001,0.015714723481574804
-0.36120000000000002,0.015714723481574804
-0.36110000000000003,0.016047569963085789
-0.36099999999999999,0.016047569963085789
-0.3609,0.016047569963085789
-0.36080000000000001,0.016047569963085789
-0.36070000000000002,0.016047569963085789
-0.36060000000000003,0.016047569963085789
-0.36049999999999999,0.016047569963085637
-0.3604,0.015714723481574804
-0.36030000000000001,0.015714723481574804
-0.36020000000000002,0.015714723481574804
-0.36010000000000003,0.016047569963085789
-0.35999999999999999,0.017046109407618741
