MATLAB/high_e_10kHz2.csv

#Digilent WaveForms Oscilloscope Acquisition
#Device Name: Discovery2
#Serial Number: SN:210321A374C1
#Date Time: 2018-09-26 12:53:32.017
#Sample rate: 10000Hz
#Samples: 8192
#Trigger: Source: Channel 1 Type: Edge Condition: Rising Level: 0 V Hyst.: Auto HoldOff: 0 s
#Channel 1: Range: 10 mV/div Offset: 0 V
#Channel 2: Range: 500 mV/div Offset: 0 V

Time (s),Channel 1 (V),Channel 2 (V)
-0.40960000000000002,0.010722026258910038,-0.001586349140421754
-0.40949999999999998,0.010722026258909887,-0.0012549759510004387
-0.40939999999999999,0.010389179777399053,-0.0012549759510004387
-0.4093,0.011387719221932007,-0.0012549759510004387
-0.40920000000000001,0.01238625866646496,-0.0012549759510004387
-0.40910000000000002,0.013384798110997912,-0.0012549759510004387
-0.40899999999999997,0.013717644592509048,-0.0012549759510004387
-0.40889999999999999,0.014050491074019882,-0.0012549759510004387
-0.4088,0.014716184037041851,-0.0012549759510004387
-0.40870000000000001,0.013717644592508897,-0.0012549759510004387
-0.40860000000000002,0.012719105147975944,-0.0012549759510004387
-0.40849999999999997,0.012719105147975944,-0.0015863491404216033
-0.40839999999999999,0.012719105147975944,-0.0012549759510004387
-0.4083,0.012719105147975944,-0.0012549759510004387
-0.40820000000000001,0.013384798110997912,-0.0012549759510004387
-0.40810000000000002,0.013051951629486929,-0.0012549759510004387
-0.40799999999999997,0.011720565703442841,-0.0012549759510004387
-0.40789999999999998,0.011387719221932007,-0.0012549759510004387
-0.4078,0.011054872740421023,-0.0012549759510004387
-0.40770000000000001,0.011387719221932007,-0.0012549759510004387
-0.40760000000000002,0.011387719221932007,-0.0012549759510004387
-0.40749999999999997,0.01105487274042072,-0.0012549759510004387
-0.40739999999999998,0.010389179777399053,-0.0012549759510004387
-0.4073,0.011054872740421023,-0.0012549759510004387
-0.40720000000000001,0.010722026258910038,-0.0012549759510004387
-0.40710000000000002,0.010722026258910038,-0.0012549759510004387
-0.40699999999999997,0.010722026258910189,-0.0012549759510004387
-0.40689999999999998,0.011054872740421023,-0.0012549759510004387
-0.40679999999999999,0.011054872740421023,-0.0012549759510004387
-0.40670000000000001,0.011054872740421023,-0.0012549759510004387
-0.40660000000000002,0.011054872740421023,-0.0012549759510004387
-0.40649999999999997,0.011054872740420872,-0.0012549759510005894
-0.40639999999999998,0.010722026258910038,-0.001586349140421754
-0.40629999999999999,0.011054872740421023,-0.0012549759510004387
-0.40620000000000001,0.012053412184953975,-0.0012549759510004387
-0.40610000000000002,0.013384798110997912,-0.0012549759510004387
-0.40600000000000003,0.013717644592508746,-0.0012549759510004387
-0.40589999999999998,0.014383337555530866,-0.0012549759510004387
-0.40579999999999999,0.014716184037041851,-0.0012549759510004387
-0.40570000000000001,0.014716184037041851,-0.0012549759510004387
-0.40560000000000002,0.013384798110997912,-0.0012549759510004387
-0.40550000000000003,0.01305195162948708,-0.0012549759510004387
-0.40539999999999998,0.013051951629486929,-0.0012549759510004387
-0.40529999999999999,0.013051951629486929,-0.0012549759510004387
-0.4052,0.013384798110997912,-0.0012549759510004387
-0.40510000000000002,0.013717644592508897,-0.0012549759510004387
-0.40500000000000003,0.012386258666465566,-0.0012549759510004387
-0.40489999999999998,0.011720565703442992,-0.0012549759510004387
-0.40479999999999999,0.011387719221932007,-0.0012549759510004387
-0.4047,0.011387719221932007,-0.0012549759510004387
-0.40460000000000002,0.011720565703442992,-0.0012549759510004387
-0.40450000000000003,0.011720565703442992,-0.0015863491404216033
-0.40439999999999998,0.011054872740421023,-0.0012549759510004387
-0.40429999999999999,0.011387719221932007,-0.0012549759510004387
-0.4042,0.011387719221932007,-0.0012549759510004387
-0.40410000000000001,0.011054872740421023,-0.0012549759510004387
-0.40400000000000003,0.010722026258910189,-0.0012549759510004387
-0.40389999999999998,0.011054872740421023,-0.0012549759510004387
-0.40379999999999999,0.011054872740421023,-0.0012549759510004387
-0.4037,0.011054872740421023,-0.0012549759510004387
-0.40360000000000001,0.011054872740421023,-0.0012549759510004387
-0.40350000000000003,0.011054872740421023,-0.0015863491404216033
-0.40339999999999998,0.010722026258910038,-0.0012549759510004387
-0.40329999999999999,0.010722026258910038,-0.001586349140421754
-0.4032,0.011720565703442992,-0.0012549759510004387
-0.40310000000000001,0.013051951629486929,-0.0012549759510004387
-0.40300000000000002,0.013717644592508595,-0.0012549759510004387
-0.40289999999999998,0.013717644592508897,-0.0012549759510004387
-0.40279999999999999,0.014716184037041851,-0.0012549759510004387
-0.4027,0.014383337555530866,-0.001586349140421754
-0.40260000000000001,0.013051951629486929,-0.001586349140421754
-0.40250000000000002,0.012719105147976095,-0.0012549759510005894
-0.40239999999999998,0.012719105147975944,-0.0012549759510004387
-0.40229999999999999,0.01238625866646496,-0.0012549759510004387
-0.4022,0.013051951629486929,-0.0012549759510004387
-0.40210000000000001,0.013384798110997912,-0.001586349140421754
-0.40200000000000002,0.012386258666465415,-0.001586349140421754
-0.40189999999999998,0.011387719221932007,-0.0012549759510004387
-0.40179999999999999,0.011054872740421023,-0.001586349140421754
-0.4017,0.011387719221932007,-0.0012549759510004387
-0.40160000000000001,0.011720565703442992,-0.0012549759510004387
-0.40150000000000002,0.011387719221932158,-0.0012549759510004387
-0.40139999999999998,0.011387719221932007,-0.0012549759510004387
-0.40129999999999999,0.011054872740421023,-0.0012549759510004387
-0.4012,0.011387719221932007,-0.0012549759510004387
-0.40110000000000001,0.011054872740421023,-0.0012549759510004387
-0.40100000000000002,0.010722026258910189,-0.0012549759510004387
-0.40089999999999998,0.010722026258910038,-0.0012549759510004387
-0.40079999999999999,0.011387719221932007,-0.0012549759510004387
-0.4007,0.011054872740421023,-0.0012549759510004387
-0.40060000000000001,0.011054872740421023,-0.0012549759510004387
-0.40050000000000002,0.011054872740421023,-0.0012549759510004387
-0.40039999999999998,0.010722026258910038,-0.001586349140421754
-0.40029999999999999,0.010722026258910038,-0.0012549759510004387
-0.4002,0.011054872740421023,-0.0012549759510004387
-0.40010000000000001,0.01238625866646496,-0.0012549759510004387
-0.40000000000000002,0.013051951629486929,-0.0012549759510004387
-0.39989999999999998,0.013384798110997912,-0.0012549759510004387
-0.39979999999999999,0.014050491074019882,-0.0012549759510004387
-0.3997,0.014383337555530866,-0.0012549759510004387
-0.39960000000000001,0.013384798110997912,-0.0012549759510004387
-0.39950000000000002,0.012719105147975944,-0.0012549759510004387
-0.39939999999999998,0.01238625866646496,-0.0012549759510004387
-0.39929999999999999,0.012719105147975944,-0.0012549759510004387
-0.3992,0.012719105147975944,-0.0012549759510004387
-0.39910000000000001,0.013051951629486929,-0.0012549759510004387
-0.39900000000000002,0.012719105147975944,-0.0012549759510004387
-0.39889999999999998,0.011054872740420872,-0.0012549759510004387
-0.39879999999999999,0.010722026258910038,-0.0012549759510004387
-0.3987,0.010722026258910038,-0.0012549759510004387
-0.39860000000000001,0.011054872740421023,-0.001586349140421754
-0.39850000000000002,0.011054872740421023,-0.001586349140421754
-0.39839999999999998,0.010722026258909887,-0.0012549759510005894
-0.39829999999999999,0.010389179777399053,-0.001586349140421754
-0.3982,0.010722026258910038,-0.0012549759510004387
-0.39810000000000001,0.010722026258910038,-0.0012549759510004387
-0.39800000000000002,0.010389179777399053,-0.0012549759510004387
-0.39789999999999998,0.010722026258910038,-0.0012549759510005894
-0.39779999999999999,0.010722026258910038,-0.001586349140421754
-0.3977,0.010722026258910038,-0.0012549759510004387
-0.39760000000000001,0.010722026258910038,-0.0012549759510004387
-0.39750000000000002,0.010722026258910038,-0.001586349140421754
-0.39739999999999998,0.010722026258909887,-0.0012549759510004387
-0.39729999999999999,0.010389179777399053,-0.0012549759510004387
-0.3972,0.010722026258910038,-0.0012549759510004387
-0.39710000000000001,0.012053412184953975,-0.0012549759510004387
-0.39700000000000002,0.013384798110997912,-0.0012549759510004387
-0.39689999999999998,0.013717644592509048,-0.0012549759510004387
-0.39679999999999999,0.014050491074019882,-0.0012549759510004387
-0.3967,0.014716184037041851,-0.0012549759510004387
-0.39660000000000001,0.014050491074019882,-0.0012549759510004387
-0.39650000000000002,0.012719105147975944,-0.0012549759510004387
-0.39639999999999997,0.012719105147975944,-0.0012549759510004387
-0.39629999999999999,0.012719105147975944,-0.0012549759510004387
-0.3962,0.01238625866646496,-0.001586349140421754
-0.39610000000000001,0.013051951629486929,-0.0012549759510004387
-0.39600000000000002,0.013051951629486929,-0.0012549759510004387
-0.39589999999999997,0.011720565703442688,-0.0012549759510004387
-0.39579999999999999,0.011054872740421023,-0.0012549759510004387
-0.3957,0.010722026258910038,-0.0012549759510004387
-0.39560000000000001,0.011054872740421023,-0.0012549759510004387
-0.39550000000000002,0.011054872740421023,-0.0012549759510004387
-0.39539999999999997,0.01105487274042072,-0.0012549759510004387
-0.39529999999999998,0.010389179777399053,-0.0012549759510004387
-0.3952,0.010722026258910038,-0.0012549759510004387
-0.39510000000000001,0.010722026258910038,-0.0012549759510004387
-0.39500000000000002,0.010389179777399053,-0.0012549759510004387
-0.39489999999999997,0.010056333295888221,-0.001586349140421754
-0.39479999999999998,0.010389179777399053,-0.001586349140421754
-0.3947,0.010722026258910038,-0.0012549759510004387
-0.39460000000000001,0.010722026258910038,-0.0012549759510004387
-0.39450000000000002,0.010722026258910038,-0.0012549759510004387
-0.39439999999999997,0.010722026258909735,-0.0012549759510004387
-0.39429999999999998,0.01005633329588807,-0.0012549759510004387
-0.39419999999999999,0.010389179777399053,-0.0012549759510004387
-0.39410000000000001,0.011720565703442992,-0.0012549759510004387
-0.39400000000000002,0.013051951629486929,-0.0012549759510004387
-0.39389999999999997,0.013717644592509048,-0.0012549759510004387
-0.39379999999999998,0.014050491074019882,-0.0012549759510004387
-0.39369999999999999,0.014716184037041851,-0.0012549759510004387
-0.39360000000000001,0.014383337555530866,-0.0012549759510004387
-0.39350000000000002,0.013384798110997912,-0.0012549759510004387
-0.39340000000000003,0.01305195162948708,-0.0012549759510004387
-0.39329999999999998,0.013051951629486929,-0.0012549759510004387
-0.39319999999999999,0.013051951629486929,-0.0012549759510004387
-0.3931,0.013384798110997912,-0.0012549759510004387
-0.39300000000000002,0.013717644592508897,-0.001586349140421754
-0.39290000000000003,0.012719105147976398,-0.001586349140421754
-0.39279999999999998,0.011720565703442992,-0.001586349140421754
-0.39269999999999999,0.011387719221932007,-0.0012549759510004387
-0.3926,0.011387719221932007,-0.0012549759510004387
-0.39250000000000002,0.011720565703442992,-0.0012549759510004387
-0.39240000000000003,0.011720565703442992,-0.0012549759510004387
-0.39229999999999998,0.011054872740421023,-0.0012549759510004387
-0.39219999999999999,0.011054872740421023,-0.0012549759510004387
-0.3921,0.011387719221932007,-0.0012549759510004387
-0.39200000000000002,0.011054872740421023,-0.001586349140421754
-0.39190000000000003,0.010722026258910189,-0.0012549759510005894
-0.39179999999999998,0.011054872740421023,-0.0012549759510004387
-0.39169999999999999,0.011387719221932007,-0.001586349140421754
-0.3916,0.011387719221932007,-0.0012549759510004387
-0.39150000000000001,0.011054872740421023,-0.0012549759510004387
-0.39140000000000003,0.011054872740421023,-0.0012549759510004387
-0.39129999999999998,0.010722026258910038,-0.0012549759510004387
-0.39119999999999999,0.010722026258910038,-0.0012549759510004387
-0.3911,0.011720565703442992,-0.001586349140421754
-0.39100000000000001,0.012719105147975944,-0.0012549759510004387
-0.39090000000000003,0.01338479811099761,-0.0012549759510004387
-0.39079999999999998,0.013717644592508897,-0.0012549759510004387
-0.39069999999999999,0.014383337555530866,-0.0012549759510004387
-0.3906,0.014716184037041851,-0.0012549759510004387
-0.39050000000000001,0.013384798110997912,-0.001586349140421754
-0.39040000000000002,0.012719105147976247,-0.0012549759510005894
-0.39029999999999998,0.013051951629486929,-0.0012549759510004387
-0.39019999999999999,0.012719105147975944,-0.0012549759510004387
-0.3901,0.013051951629486929,-0.0012549759510004387
-0.39000000000000001,0.013384798110997912,-0.0012549759510004387
-0.38990000000000002,0.012719105147976247,-0.0012549759510004387
-0.38979999999999998,0.011387719221932007,-0.0012549759510004387
-0.38969999999999999,0.011054872740421023,-0.0012549759510004387
-0.3896,0.011054872740421023,-0.0012549759510004387
-0.38950000000000001,0.011054872740421023,-0.0012549759510004387
-0.38940000000000002,0.011387719221931856,-0.0015863491404216033
-0.38929999999999998,0.011054872740421023,-0.001586349140421754
-0.38919999999999999,0.010389179777399053,-0.001586349140421754
-0.3891,0.011054872740421023,-0.0012549759510004387
-0.38900000000000001,0.010722026258910038,-0.001586349140421754
-0.38890000000000002,0.010722026258910038,-0.0012549759510005894
-0.38879999999999998,0.010722026258910038,-0.0012549759510004387
-0.38869999999999999,0.011054872740421023,-0.0012549759510004387
-0.3886,0.011054872740421023,-0.0012549759510004387
-0.38850000000000001,0.011054872740421023,-0.001586349140421754
-0.38840000000000002,0.011054872740421023,-0.0012549759510005894
-0.38829999999999998,0.010722026258910038,-0.0012549759510004387
-0.38819999999999999,0.010722026258910038,-0.001586349140421754
-0.3881,0.011054872740421023,-0.0012549759510004387
-0.38800000000000001,0.01238625866646496,-0.0012549759510004387
-0.38790000000000002,0.013384798110997912,-0.0012549759510004387
-0.38779999999999998,0.014050491074019882,-0.0012549759510004387
-0.38769999999999999,0.014383337555530866,-0.0012549759510004387
-0.3876,0.015049030518552834,-0.001586349140421754
-0.38750000000000001,0.014050491074019882,-0.0012549759510004387
-0.38740000000000002,0.013051951629486929,-0.0012549759510004387
-0.38729999999999998,0.013051951629486929,-0.0012549759510004387
-0.38719999999999999,0.012719105147975944,-0.0012549759510004387
-0.3871,0.012719105147975944,-0.001586349140421754
-0.38700000000000001,0.013384798110997912,-0.001586349140421754
-0.38690000000000002,0.013384798110997912,-0.0012549759510004387
-0.38679999999999998,0.012053412184953672,-0.001586349140421754
-0.38669999999999999,0.011387719221932007,-0.001586349140421754
-0.3866,0.011054872740421023,-0.0012549759510004387
-0.38650000000000001,0.011387719221932007,-0.0012549759510004387
-0.38640000000000002,0.011387719221932007,-0.0012549759510004387
-0.38629999999999998,0.011387719221931703,-0.0015863491404216033
-0.38619999999999999,0.010722026258910038,-0.0012549759510004387
-0.3861,0.011054872740421023,-0.0012549759510004387
-0.38600000000000001,0.011387719221932007,-0.0012549759510004387
-0.38590000000000002,0.011054872740421023,-0.0012549759510004387
-0.38579999999999998,0.011054872740421174,-0.001586349140421754
-0.38569999999999999,0.011387719221932007,-0.001586349140421754
-0.3856,0.011387719221932007,-0.0012549759510004387
-0.38550000000000001,0.011720565703442992,-0.001586349140421754
-0.38540000000000002,0.011720565703442992,-0.0012549759510004387
-0.38529999999999998,0.011387719221931856,-0.001586349140421754
-0.38519999999999999,0.011054872740421023,-0.001586349140421754
-0.3851,0.011387719221932007,-0.0012549759510004387
-0.38500000000000001,0.012719105147975944,-0.0012549759510004387
-0.38490000000000002,0.013717644592508897,-0.0012549759510004387
-0.38479999999999998,0.014050491074020033,-0.0012549759510004387
-0.38469999999999999,0.014383337555530866,-0.0012549759510004387
-0.3846,0.015049030518552834,-0.0012549759510004387
-0.38450000000000001,0.014716184037041851,-0.0012549759510004387
-0.38440000000000002,0.013384798110997912,-0.0012549759510004387
-0.38429999999999997,0.01305195162948708,-0.001586349140421754
-0.38419999999999999,0.013384798110997912,-0.001586349140421754
-0.3841,0.013051951629486929,-0.0012549759510004387
-0.38400000000000001,0.013384798110997912,-0.0012549759510004387
-0.38390000000000002,0.013717644592508897,-0.0012549759510004387
-0.38379999999999997,0.012386258666464506,-0.0012549759510004387
-0.38369999999999999,0.011387719221932007,-0.0012549759510004387
-0.3836,0.011054872740421023,-0.001586349140421754
-0.38350000000000001,0.011387719221932007,-0.0012549759510004387
-0.38340000000000002,0.011387719221932007,-0.0012549759510004387
-0.38329999999999997,0.011387719221931703,-0.0012549759510004387
-0.38319999999999999,0.010722026258910038,-0.0012549759510004387
-0.3831,0.011054872740421023,-0.0012549759510004387
-0.38300000000000001,0.011054872740421023,-0.0012549759510004387
-0.38290000000000002,0.010722026258910038,-0.0012549759510004387
-0.38279999999999997,0.010722026258910038,-0.001586349140421754
-0.38269999999999998,0.010722026258910038,-0.001586349140421754
-0.3826,0.011054872740421023,-0.001586349140421754
-0.38250000000000001,0.011054872740421023,-0.0012549759510004387
-0.38240000000000002,0.011054872740421023,-0.0012549759510004387
-0.38229999999999997,0.011054872740420872,-0.0012549759510004387
-0.38219999999999998,0.010722026258910038,-0.0012549759510004387
-0.3821,0.010722026258910038,-0.001586349140421754
-0.38200000000000001,0.011720565703442992,-0.0012549759510004387
-0.38190000000000002,0.012719105147975944,-0.0012549759510004387
-0.38179999999999997,0.013717644592509048,-0.0012549759510005894
-0.38169999999999998,0.014050491074019882,-0.001586349140421754
-0.38159999999999999,0.014383337555530866,-0.0012549759510004387
-0.38150000000000001,0.014716184037041851,-0.001586349140421754
-0.38140000000000002,0.013717644592508897,-0.0012549759510004387
-0.38129999999999997,0.013051951629486929,-0.0012549759510004387
-0.38119999999999998,0.013051951629486929,-0.0012549759510004387
-0.38109999999999999,0.013051951629486929,-0.0012549759510004387
-0.38100000000000001,0.013051951629486929,-0.0012549759510004387
-0.38090000000000002,0.013717644592508897,-0.0012549759510004387
-0.38080000000000003,0.013051951629487232,-0.0012549759510004387
-0.38069999999999998,0.012053412184953975,-0.0012549759510004387
-0.38059999999999999,0.011387719221932007,-0.0012549759510004387
-0.3805,0.011387719221932007,-0.0012549759510004387
-0.38040000000000002,0.011720565703442992,-0.0012549759510004387
-0.38030000000000003,0.011720565703442992,-0.0012549759510004387
-0.38019999999999998,0.011387719221932007,-0.0012549759510004387
-0.38009999999999999,0.011054872740421023,-0.001586349140421754
-0.38,0.011387719221932007,-0.0012549759510004387
-0.37990000000000002,0.011387719221932007,-0.0012549759510004387
-0.37980000000000003,0.011054872740421174,-0.0012549759510004387
-0.37969999999999998,0.011054872740421023,-0.0012549759510004387
-0.37959999999999999,0.011387719221932007,-0.001586349140421754
-0.3795,0.011387719221932007,-0.0012549759510004387
-0.37940000000000002,0.011387719221932007,-0.0012549759510004387
-0.37930000000000003,0.011387719221932007,-0.0015863491404216033
-0.37919999999999998,0.011054872740421023,-0.001586349140421754
-0.37909999999999999,0.010722026258910038,-0.0012549759510004387
-0.379,0.011387719221932007,-0.0012549759510004387
-0.37890000000000001,0.01238625866646496,-0.0012549759510004387
-0.37880000000000003,0.013384798110997458,-0.0015863491404216033
-0.37869999999999998,0.013384798110997912,-0.0012549759510004387
-0.37859999999999999,0.014050491074019882,-0.0012549759510004387
-0.3785,0.014716184037041851,-0.0012549759510004387
-0.37840000000000001,0.013717644592508897,-0.0012549759510004387
