MATLAB/low_e_10k.csv

#Digilent WaveForms Oscilloscope Acquisition
#Device Name: Discovery2
#Serial Number: SN:210321A374C1
#Date Time: 2018-09-25 16:48:16.994
#Sample rate: 10000Hz
#Samples: 8192
#Trigger: Source: Channel 1 Type: Edge Condition: Rising Level: 0 V Hyst.: Auto HoldOff: 0 s
#Channel 1: Range: 50 mV/div Offset: 0 V

Time (s),Channel 1 (V)
-0.40960000000000002,0.016380416444596771
-0.40949999999999998,0.015714723481574652
-0.40939999999999999,0.015381877000063819
-0.4093,0.015714723481574804
-0.40920000000000001,0.016380416444596771
-0.40910000000000002,0.017711802370640708
-0.40899999999999997,0.01837749533366298
-0.40889999999999999,0.019043188296684648
-0.4088,0.019708881259706615
-0.40870000000000001,0.020374574222728585
-0.40860000000000002,0.020707420704239567
-0.40849999999999997,0.022038806630284114
-0.40839999999999999,0.023370192556327444
-0.4083,0.024368732000860396
-0.40820000000000001,0.025367271445393347
-0.40810000000000002,0.026365810889926303
-0.40799999999999997,0.026698657371437586
-0.40789999999999998,0.027364350334459255
-0.4078,0.028362889778992206
-0.40770000000000001,0.029361429223525162
-0.40760000000000002,0.030359968668058113
-0.40749999999999997,0.031691354594102203
-0.40739999999999998,0.032024201075613039
-0.4073,0.03235704755712402
-0.40720000000000001,0.032689894038635002
-0.40710000000000002,0.033022740520145991
-0.40699999999999997,0.033022740520145991
-0.40689999999999998,0.033022740520145991
-0.40679999999999999,0.033355587001656972
-0.40670000000000001,0.033355587001656972
-0.40660000000000002,0.033355587001656972
-0.40649999999999997,0.033355587001657278
-0.40639999999999998,0.034021279964678942
-0.40629999999999999,0.034354126446189924
-0.40620000000000001,0.033688433483167954
-0.40610000000000002,0.033688433483167954
-0.40600000000000003,0.033355587001657125
-0.40589999999999998,0.032689894038635002
-0.40579999999999999,0.032024201075613039
-0.40570000000000001,0.031358508112591069
-0.40560000000000002,0.031025661631080084
-0.40550000000000003,0.030359968668058415
-0.40539999999999998,0.029694275705036147
-0.40529999999999999,0.028695736260503191
-0.4052,0.028030043297481225
-0.40510000000000002,0.027031503852948269
-0.40500000000000003,0.026365810889926605
-0.40489999999999998,0.026032964408415318
-0.40479999999999999,0.025367271445393347
-0.4047,0.025034424963882366
-0.40460000000000002,0.024701578482371381
-0.40450000000000003,0.024368732000860548
-0.40439999999999998,0.024368732000860396
-0.40429999999999999,0.023703039037838426
-0.4042,0.023370192556327444
-0.40410000000000001,0.023370192556327444
-0.40400000000000003,0.023037346074816611
-0.40389999999999998,0.022704499593305474
-0.40379999999999999,0.022038806630283507
-0.4037,0.021705960148772522
-0.40360000000000001,0.021705960148772522
-0.40350000000000003,0.022038806630283354
-0.40339999999999998,0.021705960148772522
-0.40329999999999999,0.021373113667261537
-0.4032,0.021040267185750552
-0.40310000000000001,0.020374574222728585
-0.40300000000000002,0.019708881259706917
-0.40289999999999998,0.01937603477819563
-0.40279999999999999,0.018710341815173663
-0.4027,0.018377495333662678
-0.40260000000000001,0.018377495333662678
-0.40250000000000002,0.01771180237064101
-0.40239999999999998,0.017046109407618741
-0.40229999999999999,0.016047569963085789
-0.4022,0.015049030518552834
-0.40210000000000001,0.014383337555530866
-0.40200000000000002,0.014050491074020033
-0.40189999999999998,0.013717644592508897
-0.40179999999999999,0.013384798110997912
-0.4017,0.013384798110997912
-0.40160000000000001,0.013384798110997912
-0.40150000000000002,0.013717644592508746
-0.40139999999999998,0.014383337555530866
-0.40129999999999999,0.015049030518552834
-0.4012,0.016047569963085789
-0.40110000000000001,0.017046109407618741
-0.40100000000000002,0.017711802370640406
-0.40089999999999998,0.018710341815173663
-0.40079999999999999,0.019708881259706615
-0.4007,0.020707420704239567
-0.40060000000000001,0.021373113667261537
-0.40050000000000002,0.022038806630283507
-0.40039999999999998,0.022704499593305474
-0.40029999999999999,0.023370192556327444
-0.4002,0.024701578482371381
-0.40010000000000001,0.025367271445393347
-0.40000000000000002,0.026032964408415318
-0.39989999999999998,0.027364350334459255
-0.39979999999999999,0.028695736260503191
-0.3997,0.030027122186547128
-0.39960000000000001,0.031025661631080084
-0.39950000000000002,0.031358508112591069
-0.39939999999999998,0.03169135459410205
-0.39929999999999999,0.03169135459410205
-0.3992,0.032024201075613039
-0.39910000000000001,0.03169135459410205
-0.39900000000000002,0.031358508112591069
-0.39889999999999998,0.030359968668057812
-0.39879999999999999,0.029694275705036147
-0.3987,0.028695736260503191
-0.39860000000000001,0.028030043297481225
-0.39850000000000002,0.027364350334459255
-0.39839999999999998,0.02669865737143683
-0.39829999999999999,0.025700117926904333
-0.3982,0.024368732000860396
-0.39810000000000001,0.023037346074816459
-0.39800000000000002,0.021373113667261537
-0.39789999999999998,0.020041727741216993
-0.39779999999999999,0.018710341815173663
-0.3977,0.017711802370640708
-0.39760000000000001,0.016713262926107756
-0.39750000000000002,0.016047569963085789
-0.39739999999999998,0.0147161840370417
-0.39729999999999999,0.014383337555530866
-0.3972,0.014050491074019882
-0.39710000000000001,0.014383337555530866
-0.39700000000000002,0.014716184037041851
-0.39689999999999998,0.015714723481575259
-0.39679999999999999,0.016713262926107756
-0.3967,0.017378955889129726
-0.39660000000000001,0.017711802370640708
-0.39650000000000002,0.018377495333662678
-0.39639999999999997,0.019043188296685255
-0.39629999999999999,0.020374574222728585
-0.3962,0.021373113667261537
-0.39610000000000001,0.022371653111794489
-0.39600000000000002,0.023370192556327444
-0.39589999999999997,0.024368732000860548
-0.39579999999999999,0.024701578482371381
-0.3957,0.025367271445393347
-0.39560000000000001,0.026698657371437284
-0.39550000000000002,0.028030043297481225
-0.39539999999999997,0.029028582742014631
-0.39529999999999998,0.030027122186547128
-0.3952,0.030692815149569098
-0.39510000000000001,0.031025661631080084
-0.39500000000000002,0.031358508112591069
-0.39489999999999997,0.031358508112591374
-0.39479999999999998,0.032024201075613039
-0.3947,0.032024201075613039
-0.39460000000000001,0.03235704755712402
-0.39450000000000002,0.03235704755712402
-0.39439999999999997,0.03235704755712402
-0.39429999999999998,0.03235704755712402
-0.39419999999999999,0.03235704755712402
-0.39410000000000001,0.03235704755712402
-0.39400000000000002,0.03235704755712402
-0.39389999999999997,0.032024201075613039
-0.39379999999999998,0.032024201075613039
-0.39369999999999999,0.03169135459410205
-0.39360000000000001,0.031358508112591069
-0.39350000000000002,0.031025661631080084
-0.39340000000000003,0.030359968668058415
-0.39329999999999998,0.029694275705036147
-0.39319999999999999,0.029028582742014176
-0.3931,0.028362889778992206
-0.39300000000000002,0.02769719681597024
-0.39290000000000003,0.027031503852948571
-0.39279999999999998,0.026365810889926303
-0.39269999999999999,0.026032964408415318
-0.3926,0.026032964408415318
-0.39250000000000002,0.025700117926904333
-0.39240000000000003,0.0253672714453935
-0.39229999999999998,0.025034424963882366
-0.39219999999999999,0.024701578482371381
-0.3921,0.024368732000860396
-0.39200000000000002,0.024368732000860396
-0.39190000000000003,0.024368732000860396
-0.39179999999999998,0.024035885519349411
-0.39169999999999999,0.024035885519349411
-0.3916,0.023703039037838426
-0.39150000000000001,0.023370192556327444
-0.39140000000000003,0.023037346074816611
-0.39129999999999998,0.023037346074816459
-0.39119999999999999,0.023037346074816459
-0.3911,0.023037346074816459
-0.39100000000000001,0.022371653111794489
-0.39090000000000003,0.021705960148772824
-0.39079999999999998,0.021040267185750552
-0.39069999999999999,0.020707420704239567
-0.3906,0.020374574222728585
-0.39050000000000001,0.0200417277412176
-0.39040000000000002,0.019708881259706768
-0.39029999999999998,0.019043188296684648
-0.39019999999999999,0.018377495333662678
-0.3901,0.017378955889129726
-0.39000000000000001,0.016380416444596771
-0.38990000000000002,0.015381877000064274
-0.38979999999999998,0.015381877000063819
-0.38969999999999999,0.015381877000063819
-0.3896,0.015049030518552834
-0.38950000000000001,0.015049030518552834
-0.38940000000000002,0.015049030518552834
-0.38929999999999998,0.015381877000063819
-0.38919999999999999,0.015381877000063819
-0.3891,0.016047569963085789
-0.38900000000000001,0.016713262926107756
-0.38890000000000002,0.017711802370640253
-0.38879999999999998,0.018710341815173663
-0.38869999999999999,0.019708881259706615
-0.3886,0.020374574222728585
-0.38850000000000001,0.020707420704239567
-0.38840000000000002,0.021705960148772067
-0.38829999999999998,0.022704499593305474
-0.38819999999999999,0.023370192556327444
-0.3881,0.024035885519349411
-0.38800000000000001,0.024701578482371381
-0.38790000000000002,0.025034424963882366
-0.38779999999999998,0.026365810889926303
-0.38769999999999999,0.027364350334459255
-0.3876,0.028695736260503191
-0.38750000000000001,0.029694275705036147
-0.38740000000000002,0.030359968668058113
-0.38729999999999998,0.031025661631080084
-0.38719999999999999,0.031358508112591069
-0.3871,0.03169135459410205
-0.38700000000000001,0.03169135459410205
-0.38690000000000002,0.03169135459410205
-0.38679999999999998,0.031358508112590618
-0.38669999999999999,0.030359968668058113
-0.3866,0.029361429223525162
-0.38650000000000001,0.029028582742014176
-0.38640000000000002,0.028030043297481225
-0.38629999999999998,0.027031503852948117
-0.38619999999999999,0.026698657371437284
-0.3861,0.025700117926904333
-0.38600000000000001,0.024701578482371381
-0.38590000000000002,0.023037346074816459
-0.38579999999999998,0.02137311366726093
-0.38569999999999999,0.0200417277412176
-0.3856,0.019043188296684648
-0.38550000000000001,0.018044648852151693
-0.38540000000000002,0.017046109407618741
-0.38529999999999998,0.016047569963085335
-0.38519999999999999,0.015049030518552834
-0.3851,0.014383337555530866
-0.38500000000000001,0.013717644592508897
-0.38490000000000002,0.014383337555530866
-0.38479999999999998,0.015049030518553138
-0.38469999999999999,0.015714723481574804
-0.3846,0.016380416444596771
-0.38450000000000001,0.017378955889129726
-0.38440000000000002,0.017711802370640708
-0.38429999999999997,0.01837749533366298
-0.38419999999999999,0.019043188296684648
-0.3841,0.0200417277412176
-0.38400000000000001,0.021040267185750552
-0.38390000000000002,0.022371653111794489
-0.38379999999999997,0.023370192556327746
-0.38369999999999999,0.024035885519349411
-0.3836,0.024701578482371381
-0.38350000000000001,0.025700117926904333
-0.38340000000000002,0.026365810889926303
-0.38329999999999997,0.027364350334459709
-0.38319999999999999,0.028362889778992206
-0.3831,0.029361429223525162
-0.38300000000000001,0.030359968668058113
-0.38290000000000002,0.030692815149569098
-0.38279999999999997,0.031025661631080236
-0.38269999999999998,0.031358508112591069
-0.3826,0.031358508112591069
-0.38250000000000001,0.03169135459410205
-0.38240000000000002,0.03169135459410205
-0.38229999999999997,0.031691354594102203
-0.38219999999999998,0.032024201075613039
-0.3821,0.03235704755712402
-0.38200000000000001,0.03235704755712402
-0.38190000000000002,0.032024201075613039
-0.38179999999999997,0.032024201075613039
-0.38169999999999998,0.032024201075613039
-0.38159999999999999,0.03169135459410205
-0.38150000000000001,0.031358508112591069
-0.38140000000000002,0.031025661631080084
-0.38129999999999997,0.030692815149568946
-0.38119999999999998,0.030359968668058113
-0.38109999999999999,0.030027122186547128
-0.38100000000000001,0.029361429223525162
-0.38090000000000002,0.028695736260503191
-0.38080000000000003,0.027697196815970694
-0.38069999999999998,0.027364350334459255
-0.38059999999999999,0.027031503852948269
-0.3805,0.026365810889926303
-0.38040000000000002,0.026032964408415318
-0.38030000000000003,0.025700117926904485
-0.38019999999999998,0.025700117926904333
-0.38009999999999999,0.025367271445393347
-0.38,0.025034424963882366
-0.37990000000000002,0.024701578482371381
-0.37980000000000003,0.024701578482371381
-0.37969999999999998,0.024701578482371381
-0.37959999999999999,0.024368732000860396
-0.3795,0.023703039037838426
-0.37940000000000002,0.023370192556327444
-0.37930000000000003,0.023037346074816611
-0.37919999999999998,0.022704499593305474
-0.37909999999999999,0.022704499593305474
-0.379,0.022038806630283507
-0.37890000000000001,0.022371653111794489
-0.37880000000000003,0.02203880663028366
-0.37869999999999998,0.021040267185750552
-0.37859999999999999,0.020374574222728585
-0.3785,0.0200417277412176
-0.37840000000000001,0.01937603477819563
-0.37830000000000003,0.019043188296684801
-0.37819999999999998,0.018710341815173663
-0.37809999999999999,0.018044648852151693
-0.378,0.017378955889129726
-0.37790000000000001,0.016380416444596771
-0.37780000000000002,0.015381877000064274
-0.37769999999999998,0.014050491074019882
-0.37759999999999999,0.013717644592508897
-0.3775,0.013384798110997912
-0.37740000000000001,0.013051951629486929
-0.37730000000000002,0.012719105147976095
-0.37719999999999998,0.01238625866646496
-0.37709999999999999,0.012719105147975944
-0.377,0.013051951629486929
-0.37690000000000001,0.013384798110997912
-0.37680000000000002,0.014383337555530411
-0.37669999999999998,0.015381877000063819
-0.37659999999999999,0.016047569963085789
-0.3765,0.017378955889129726
-0.37640000000000001,0.018710341815173663
-0.37630000000000002,0.019376034778195328
-0.37619999999999998,0.0200417277412176
-0.37609999999999999,0.020707420704239567
-0.376,0.021705960148772522
-0.37590000000000001,0.022038806630283507
-0.37580000000000002,0.023037346074816004
-0.37569999999999998,0.024035885519349411
-0.37559999999999999,0.025034424963882366
-0.3755,0.026365810889926303
-0.37540000000000001,0.027364350334459255
-0.37530000000000002,0.028695736260503191
-0.37519999999999998,0.030027122186547128
-0.37509999999999999,0.030692815149569098
-0.375,0.031358508112591069
-0.37490000000000001,0.03169135459410205
-0.37480000000000002,0.032024201075613039
-0.37469999999999998,0.032024201075613039
-0.37459999999999999,0.032024201075613039
-0.3745,0.031358508112591069
-0.37440000000000001,0.030692815149569098
-0.37430000000000002,0.030027122186547128
-0.37419999999999998,0.02936142922352486
-0.37409999999999999,0.028695736260503191
-0.374,0.02769719681597024
-0.37390000000000001,0.027031503852948269
-0.37380000000000002,0.026032964408415318
-0.37369999999999998,0.024368732000859941
-0.37359999999999999,0.023370192556327444
-0.3735,0.021705960148772522
-0.37340000000000001,0.020707420704239567
-0.37330000000000002,0.019708881259706615
-0.37319999999999998,0.018377495333662678
-0.37309999999999999,0.018377495333662678
-0.373,0.017378955889129726
-0.37290000000000001,0.016713262926107756
-0.37280000000000002,0.016380416444596771
-0.37269999999999998,0.016380416444596924
-0.37259999999999999,0.016713262926107756
-0.3725,0.017378955889129726
-0.37240000000000001,0.018377495333662678
-0.37230000000000002,0.019043188296684648
-0.37219999999999998,0.019708881259706917
-0.37209999999999999,0.020374574222728585
-0.372,0.020707420704239567
-0.37190000000000001,0.021705960148772522
-0.37180000000000002,0.022704499593305474
-0.37169999999999997,0.024035885519349865
-0.37159999999999999,0.025034424963882366
-0.3715,0.025700117926904333
-0.37140000000000001,0.026032964408415318
-0.37130000000000002,0.026365810889926303
-0.37119999999999997,0.027364350334459556
-0.37109999999999999,0.028030043297481225
-0.371,0.029028582742014176
-0.37090000000000001,0.030027122186547128
-0.37080000000000002,0.030692815149569098
-0.37069999999999997,0.031358508112591069
-0.37059999999999998,0.031358508112591069
-0.3705,0.03169135459410205
-0.37040000000000001,0.03169135459410205
-0.37030000000000002,0.03169135459410205
-0.37019999999999997,0.031691354594102203
-0.37009999999999998,0.032024201075613039
-0.37,0.032024201075613039
-0.36990000000000001,0.032024201075613039
-0.36980000000000002,0.03169135459410205
-0.36969999999999997,0.032024201075613039
-0.36959999999999998,0.032024201075613039
-0.3695,0.03169135459410205
-0.36940000000000001,0.031358508112591069
-0.36930000000000002,0.031358508112591069
-0.36919999999999997,0.031025661631080084
-0.36909999999999998,0.031025661631080084
-0.36899999999999999,0.030692815149569098
-0.36890000000000001,0.030359968668058113
-0.36880000000000002,0.029694275705036147
-0.36870000000000003,0.029028582742014478
-0.36859999999999998,0.028030043297481225
-0.36849999999999999,0.027364350334459255
-0.36840000000000001,0.026698657371437284
-0.36830000000000002,0.026365810889926303
-0.36820000000000003,0.026698657371437132
-0.36809999999999998,0.026365810889926303
-0.36799999999999999,0.026032964408415318
-0.3679,0.025700117926904333
-0.36780000000000002,0.025367271445393347
-0.36770000000000003,0.025034424963882519
-0.36759999999999998,0.025034424963882366
-0.36749999999999999,0.024701578482371381
-0.3674,0.024368732000860396
-0.36730000000000002,0.024035885519349411
-0.36720000000000003,0.023703039037838578
-0.36709999999999998,0.023370192556327444
-0.36699999999999999,0.023037346074816459
-0.3669,0.022704499593305474
-0.36680000000000001,0.022371653111794489
-0.36670000000000003,0.021705960148772824
-0.36659999999999998,0.021373113667261537
-0.36649999999999999,0.021040267185750552
-0.3664,0.020374574222728585
-0.36630000000000001,0.01937603477819563
-0.36620000000000003,0.019043188296684801
-0.36609999999999998,0.018377495333662678
-0.36599999999999999,0.018044648852151693
-0.3659,0.017378955889129726
-0.36580000000000001,0.016713262926107756
-0.36570000000000003,0.016047569963086091
-0.36559999999999998,0.015049030518552834
-0.36549999999999999,0.014050491074019882
-0.3654,0.013384798110997912
-0.36530000000000001,0.013051951629486929
-0.36520000000000002,0.012719105147976095
-0.36509999999999998,0.01238625866646496
-0.36499999999999999,0.01238625866646496
-0.3649,0.01238625866646496
-0.36480000000000001,0.013051951629486929
-0.36470000000000002,0.013384798110997761
-0.36459999999999998,0.013717644592508897
-0.36449999999999999,0.014716184037041851
-0.3644,0.015714723481574804
-0.36430000000000001,0.017046109407618741
-0.36420000000000002,0.018044648852151238
-0.36409999999999998,0.019043188296684648
-0.36399999999999999,0.019708881259706615
-0.3639,0.020707420704239567
-0.36380000000000001,0.021705960148772522
-0.36370000000000002,0.022704499593305019
-0.36359999999999998,0.023370192556327444
-0.36349999999999999,0.024368732000860396
-0.3634,0.025700117926904333
-0.36330000000000001,0.026698657371437284
-0.36320000000000002,0.027697196815969785
-0.36309999999999998,0.028695736260503191
-0.36299999999999999,0.029694275705036147
-0.3629,0.030692815149569098
-0.36280000000000001,0.03169135459410205
-0.36270000000000002,0.03235704755712402
-0.36259999999999998,0.03235704755712402
-0.36249999999999999,0.03235704755712402
-0.3624,0.032024201075613039
-0.36230000000000001,0.031358508112591069
-0.36220000000000002,0.030692815149569098
-0.36209999999999998,0.030359968668058113
-0.36199999999999999,0.029361429223525162
-0.3619,0.028695736260503191
-0.36180000000000001,0.02769719681597024
-0.36170000000000002,0.027031503852948269
-0.36159999999999998,0.026032964408414863
-0.36149999999999999,0.025034424963882366
-0.3614,0.023370192556327444
-0.36130000000000001,0.022038806630283507
-0.36120000000000002,0.020707420704239567
-0.36109999999999998,0.019376034778195175
-0.36099999999999999,0.018377495333662678
-0.3609,0.017378955889129726
-0.36080000000000001,0.016380416444596771
-0.36070000000000002,0.015381877000063819
-0.36059999999999998,0.015049030518552683
-0.36049999999999999,0.014716184037041851
-0.3604,0.015049030518552834
-0.36030000000000001,0.015714723481574804
-0.36020000000000002,0.016380416444596771
-0.36009999999999998,0.017046109407619043
-0.35999999999999999,0.017711802370640708
