MATLAB/power.csv

#Digilent WaveForms Oscilloscope Acquisition
#Device Name: Discovery2
#Serial Number: SN:210321A374C1
#Date Time: 2019-02-28 20:23:28.362
#Trigger:Source: Channel 1Type: EdgeCondition: RisingLevel: 0 VHyst.: AutoHoldOff: 0 s
#Channel 1: Range: 2 V/div Offset: 0 V
#Channel 2: Range: 500 mV/div Offset: 0 V

Time (s),Channel 1 (V),Channel 2 (V)
-0.0051200000000000004,4.6212821655107135,-0.001586349140421754
-0.00511875,4.6249360033071492,-0.001586349140421754
-0.0051174999999999997,4.6212821655107152,-0.001586349140421754
-0.0051162500000000001,4.6249360033071492,-0.001586349140421754
-0.0051149999999999998,4.6322436789000205,-0.001586349140421754
-0.0051137500000000002,4.6285898411035848,-0.0012549759510004387
-0.0051124999999999999,4.6285898411035848,-0.001586349140421754
-0.0051112500000000003,4.6285898411035848,-0.00092360276157942489
-0.00511,4.6285898411035848,-0.001586349140421754
-0.0051087499999999996,4.6285898411035866,-0.0015863491404216033
-0.0051075000000000001,4.6322436789000205,-0.0012549759510004387
-0.0051062499999999997,4.6285898411035866,-0.0012549759510005894
-0.0051050000000000002,4.6322436789000205,-0.001586349140421754
-0.0051037499999999998,4.6285898411035848,-0.0012549759510004387
-0.0051025000000000003,4.6249360033071492,-0.0019177223298430697
-0.0051012499999999999,4.6249360033071492,-0.0012549759510004387
-0.0051000000000000004,4.6285898411035831,-0.0012549759510004387
-0.00509875,4.6285898411035848,-0.001586349140421754
-0.0050974999999999996,4.6249360033071527,-0.0015863491404219047
-0.0050962500000000001,4.6322436789000205,-0.0019177223298430697
-0.0050949999999999997,4.6322436789000188,-0.0015863491404216033
-0.0050937500000000002,4.6285898411035848,-0.0012549759510004387
-0.0050924999999999998,4.6285898411035848,-0.000592229572157808
-0.0050912500000000003,4.6249360033071509,-0.0012549759510001373
-0.0050899999999999999,4.6285898411035848,-0.00092360276157912348
-0.0050887500000000004,4.6285898411035848,-0.001254975951000288
-0.0050875,4.6285898411035848,-0.0012549759510004387
-0.0050862499999999996,4.6285898411035848,-0.0012549759510004387
-0.0050850000000000001,4.6285898411035848,-0.0012549759510004387
-0.0050837499999999997,4.6285898411035848,-0.001586349140421754
-0.0050825000000000002,4.6249360033071492,-0.0012549759510004387
-0.0050812499999999998,4.6285898411035848,-0.0012549759510004387
-0.0050800000000000003,4.6322436789000188,-0.0015863491404216033
-0.0050787499999999999,4.6249360033071492,-0.001586349140421754
-0.0050775000000000004,4.6285898411035831,-0.0012549759510005894
-0.00507625,4.6285898411035848,-0.0012549759510004387
-0.0050749999999999997,4.6285898411035848,-0.0015863491404216033
-0.0050737500000000001,4.6285898411035848,-0.0012549759510004387
-0.0050724999999999998,4.6212821655107135,-0.0012549759510004387
-0.0050712500000000002,4.6249360033071492,-0.00092360276157912348
-0.0050699999999999999,4.6358975166964562,-0.0012549759510004387
-0.0050687500000000003,4.6285898411035884,-0.0015863491404216033
-0.0050675,4.6322436789000205,-0.0012549759510004387
-0.0050662499999999996,4.6285898411035866,-0.0012549759510004387
-0.0050650000000000001,4.6322436789000205,-0.0012549759510004387
-0.0050637499999999997,4.6249360033071492,-0.0012549759510005894
-0.0050625000000000002,4.6249360033071492,-0.001586349140421754
-0.0050612499999999998,4.6285898411035848,-0.001586349140421754
-0.0050600000000000003,4.6285898411035848,-0.0012549759510004387
-0.0050587499999999999,4.6285898411035848,-0.0012549759510004387
-0.0050575000000000004,4.6249360033071509,-0.0012549759510004387
-0.00505625,4.6249360033071492,-0.001586349140421754
-0.0050549999999999996,4.621282165510717,-0.001586349140421754
-0.0050537500000000001,4.6285898411035848,-0.001586349140421754
-0.0050524999999999997,4.6249360033071492,-0.0012549759510004387
-0.0050512500000000002,4.6249360033071492,-0.0012549759510004387
-0.0050499999999999998,4.6285898411035848,-0.001586349140421754
-0.0050487500000000003,4.6285898411035848,-0.0012549759510005894
-0.0050474999999999999,4.6285898411035848,-0.001586349140421754
-0.0050462500000000004,4.6285898411035848,-0.001586349140421754
-0.005045,4.6285898411035848,-0.0012549759510004387
-0.0050437499999999996,4.6285898411035848,-0.0015863491404214526
-0.0050425000000000001,4.6285898411035848,-0.00092360276157912348
-0.0050412499999999997,4.6285898411035848,-0.0012549759510004387
-0.0050400000000000002,4.6249360033071492,-0.0012549759510004387
-0.0050387499999999998,4.6249360033071492,-0.0012549759510004387
-0.0050375000000000003,4.6249360033071492,-0.00092360276157927418
-0.0050362499999999999,4.6212821655107135,-0.00092360276157912348
-0.0050350000000000004,4.6249360033071474,-0.001254975951000288
-0.00503375,4.6249360033071492,-0.0012549759510004387
-0.0050324999999999996,4.6249360033071474,-0.0015863491404219047
-0.0050312500000000001,4.6212821655107135,-0.0019177223298430697
-0.0050299999999999997,4.6249360033071492,-0.001586349140421754
-0.0050287500000000002,4.6249360033071492,-0.001586349140421754
-0.0050274999999999999,4.6212821655107135,-0.0012549759510004387
-0.0050262500000000003,4.6249360033071474,-0.0012549759510004387
-0.005025,4.6249360033071492,-0.001586349140421754
-0.0050237499999999996,4.6285898411035831,-0.0012549759510004387
-0.0050225000000000001,4.6249360033071492,-0.0012549759510004387
-0.0050212499999999997,4.6322436789000188,-0.0015863491404216033
-0.0050200000000000002,4.6285898411035848,-0.0012549759510004387
-0.0050187499999999998,4.6285898411035848,-0.001586349140421754
-0.0050175000000000003,4.6285898411035848,-0.001586349140421754
-0.0050162499999999999,4.6249360033071492,-0.001586349140421754
-0.0050150000000000004,4.632243678900017,-0.0012549759510005894
-0.00501375,4.6285898411035848,-0.0012549759510004387
-0.0050124999999999996,4.6285898411035848,-0.001586349140421754
-0.0050112500000000001,4.6285898411035848,-0.001586349140421754
-0.0050099999999999997,4.6212821655107152,-0.0015863491404220554
-0.0050087500000000002,4.6249360033071492,-0.002249095519264385
-0.0050074999999999998,4.6249360033071492,-0.001586349140421754
-0.0050062500000000003,4.6212821655107135,-0.00092360276157912348
-0.0050049999999999999,4.6285898411035848,-0.001586349140421754
-0.0050037500000000004,4.6249360033071509,-0.0012549759510005894
-0.0050025,4.6249360033071492,-0.001586349140421754
-0.0050012499999999996,4.6249360033071492,-0.0015863491404214526
-0.0050000000000000001,4.6249360033071492,-0.00092360276157912348
-0.0049987499999999997,4.6249360033071492,-0.000592229572157808
-0.0049975000000000002,4.6285898411035848,-0.0012549759510004387
-0.0049962499999999998,4.6285898411035848,-0.00092360276157912348
-0.0049950000000000003,4.6285898411035848,-0.001254975951000288
-0.0049937499999999999,4.6249360033071492,-0.0012549759510004387
-0.0049925000000000004,4.6285898411035831,-0.0012549759510004387
-0.00499125,4.6322436789000205,-0.001586349140421754
-0.0049899999999999996,4.6285898411035831,-0.0015863491404214526
-0.0049887500000000001,4.6249360033071492,-0.00092360276157912348
-0.0049874999999999997,4.6322436789000205,-0.001586349140421754
-0.0049862500000000002,4.6285898411035848,-0.001586349140421754
-0.0049849999999999998,4.6285898411035848,-0.0012549759510004387
-0.0049837500000000003,4.6285898411035848,-0.0012549759510004387
-0.0049824999999999999,4.6249360033071492,-0.001586349140421754
-0.0049812499999999996,4.6212821655107152,-0.0012549759510005894
-0.0049800000000000001,4.6249360033071492,-0.001586349140421754
-0.0049787499999999997,4.632243678900017,-0.00092360276157927418
-0.0049775000000000002,4.6249360033071492,-0.0012549759510004387
-0.0049762499999999998,4.6249360033071492,-0.0012549759510004387
-0.0049750000000000003,4.6212821655107135,-0.00092360276157912348
-0.0049737499999999999,4.6249360033071492,-0.00092360276157912348
-0.0049725000000000004,4.6285898411035831,-0.0015863491404214526
-0.00497125,4.6249360033071492,-0.0012549759510004387
-0.0049699999999999996,4.6249360033071509,-0.0012549759510004387
-0.0049687500000000001,4.6285898411035848,-0.0012549759510004387
-0.0049674999999999997,4.6249360033071509,-0.0012549759510005894
-0.0049662500000000002,4.6285898411035848,-0.001586349140421754
-0.0049649999999999998,4.6322436789000205,-0.0012549759510004387
-0.0049637500000000003,4.6249360033071492,-0.00092360276157912348
-0.0049624999999999999,4.6322436789000205,-0.00092360276157912348
-0.0049612500000000004,4.6285898411035866,-0.001254975951000288
-0.00496,4.6285898411035848,-0.0012549759510004387
-0.0049587499999999996,4.621282165510717,-0.0015863491404216033
-0.0049575000000000001,4.6285898411035848,-0.0012549759510004387
-0.0049562499999999997,4.6212821655107135,-0.0012549759510004387
-0.0049550000000000002,4.6212821655107135,-0.0012549759510004387
-0.0049537499999999998,4.6285898411035848,-0.001586349140421754
-0.0049525000000000003,4.6322436789000188,-0.001586349140421754
-0.0049512499999999999,4.6285898411035848,-0.0012549759510004387
-0.0049500000000000004,4.6249360033071509,-0.0015863491404216033
-0.00494875,4.6285898411035848,-0.001586349140421754
-0.0049474999999999996,4.6285898411035831,-0.001586349140421754
-0.0049462500000000001,4.6249360033071492,-0.001586349140421754
-0.0049449999999999997,4.6285898411035848,-0.001586349140421754
-0.0049437500000000002,4.6249360033071492,-0.0012549759510004387
-0.0049424999999999998,4.6285898411035848,-0.001586349140421754
-0.0049412500000000003,4.6285898411035848,-0.001917722329842919
-0.0049399999999999999,4.6322436789000205,-0.0012549759510004387
-0.0049387500000000004,4.6285898411035866,-0.0012549759510004387
-0.0049375,4.6249360033071492,-0.0012549759510004387
-0.0049362499999999997,4.6285898411035831,-0.0012549759510004387
-0.0049350000000000002,4.6249360033071492,-0.0012549759510004387
-0.0049337499999999998,4.6212821655107135,-0.0012549759510004387
-0.0049325000000000003,4.6249360033071492,-0.001586349140421754
-0.0049312499999999999,4.6212821655107135,-0.0012549759510004387
-0.0049300000000000004,4.6249360033071474,-0.00092360276157927418
-0.00492875,4.6322436789000205,-0.0012549759510004387
-0.0049274999999999996,4.6285898411035831,-0.001586349140421754
-0.0049262500000000001,4.6249360033071492,-0.001586349140421754
-0.0049249999999999997,4.6249360033071492,-0.0015863491404216033
-0.0049237500000000002,4.6249360033071492,-0.0012549759510004387
-0.0049224999999999998,4.6285898411035848,-0.0012549759510004387
-0.0049212500000000003,4.6285898411035848,-0.0012549759510004387
-0.0049199999999999999,4.6285898411035848,-0.0012549759510004387
-0.0049187500000000004,4.6285898411035848,-0.0012549759510004387
-0.0049175,4.6212821655107135,-0.001586349140421754
-0.0049162499999999996,4.6249360033071509,-0.001586349140421754
-0.0049150000000000001,4.6285898411035848,-0.001586349140421754
-0.0049137499999999997,4.6285898411035848,-0.0012549759510007402
-0.0049125000000000002,4.6285898411035848,-0.0019177223298430697
-0.0049112499999999998,4.6249360033071492,-0.0019177223298430697
-0.0049100000000000003,4.6285898411035831,-0.0015863491404219047
-0.0049087499999999999,4.6285898411035848,-0.001586349140421754
-0.0049075000000000004,4.6285898411035848,-0.0012549759510005894
-0.00490625,4.6249360033071492,-0.0012549759510004387
-0.0049049999999999996,4.6249360033071492,-0.00092360276157942489
-0.0049037500000000001,4.6249360033071492,-0.001586349140421754
-0.0049024999999999997,4.6212821655107135,-0.0012549759510004387
-0.0049012500000000002,4.6249360033071492,-0.0012549759510004387
-0.0048999999999999998,4.6285898411035848,-0.001586349140421754
-0.0048987500000000003,4.6285898411035848,-0.001586349140421754
-0.0048974999999999999,4.6249360033071492,-0.0012549759510004387
-0.0048962500000000004,4.6212821655107152,-0.00092360276157927418
-0.004895,4.6285898411035848,-0.00092360276157912348
-0.0048937499999999997,4.6249360033071492,-0.001586349140421754
-0.0048925000000000001,4.6249360033071492,-0.001586349140421754
-0.0048912499999999998,4.6249360033071492,-0.0012549759510004387
-0.0048900000000000002,4.6249360033071492,-0.0019177223298430697
-0.0048887499999999999,4.6322436789000205,-0.0019177223298430697
-0.0048875000000000004,4.6285898411035866,-0.0015863491404219047
-0.00488625,4.6285898411035848,-0.0012549759510004387
-0.0048849999999999996,4.6249360033071509,-0.0015863491404216033
-0.0048837500000000001,4.6285898411035848,-0.0012549759510004387
-0.0048824999999999997,4.6322436789000205,-0.00092360276157927418
-0.0048812500000000002,4.6322436789000205,-0.0012549759510004387
-0.0048799999999999998,4.6285898411035848,-0.001586349140421754
-0.0048787500000000003,4.6322436789000205,-0.0012549759510004387
-0.0048774999999999999,4.6249360033071492,-0.0012549759510004387
-0.0048762500000000004,4.6249360033071492,-0.0012549759510004387
-0.004875,4.6285898411035848,-0.00092360276157912348
-0.0048737499999999996,4.621282165510717,-0.0012549759510005894
-0.0048725000000000001,4.6285898411035848,-0.001586349140421754
-0.0048712499999999997,4.6285898411035866,-0.001586349140421754
-0.0048700000000000002,4.6322436789000205,-0.001586349140421754
-0.0048687499999999998,4.6249360033071492,-0.001586349140421754
-0.0048675000000000003,4.6249360033071492,-0.0012549759510005894
-0.0048662499999999999,4.6249360033071492,-0.0012549759510004387
-0.0048650000000000004,4.6285898411035831,-0.0019177223298427683
-0.00486375,4.6249360033071492,-0.001586349140421754
-0.0048624999999999996,4.6249360033071509,-0.0012549759510004387
-0.0048612500000000001,4.6285898411035848,-0.0012549759510004387
-0.0048599999999999997,4.6285898411035848,-0.0012549759510004387
-0.0048587500000000002,4.6285898411035848,-0.0012549759510004387
-0.0048574999999999998,4.6249360033071492,-0.001586349140421754
-0.0048562500000000003,4.632243678900017,-0.0012549759510005894
-0.0048549999999999999,4.6285898411035848,-0.001586349140421754
-0.0048537500000000004,4.6322436789000188,-0.0012549759510005894
-0.0048525,4.6285898411035848,-0.0012549759510004387
-0.0048512499999999997,4.6285898411035831,-0.001254975951000288
-0.0048500000000000001,4.6249360033071492,-0.00092360276157912348
-0.0048487499999999998,4.6249360033071492,-0.0012549759510004387
-0.0048475000000000002,4.6212821655107135,-0.0012549759510004387
-0.0048462499999999999,4.6212821655107135,-0.0012549759510004387
-0.0048450000000000003,4.6212821655107135,-0.0012549759510004387
-0.00484375,4.6212821655107135,-0.0012549759510004387
-0.0048424999999999996,4.6249360033071474,-0.00092360276157942489
-0.0048412500000000001,4.6212821655107135,-0.001586349140421754
-0.0048399999999999997,4.6285898411035831,-0.0015863491404219047
-0.0048387500000000002,4.6249360033071492,-0.0019177223298430697
-0.0048374999999999998,4.6249360033071492,-0.0012549759510004387
-0.0048362500000000003,4.6285898411035848,-0.0012549759510004387
-0.0048349999999999999,4.6249360033071492,-0.0012549759510004387
-0.0048337500000000004,4.6285898411035831,-0.0012549759510004387
-0.0048325,4.6322436789000205,-0.0012549759510004387
-0.0048312499999999996,4.6285898411035813,-0.0012549759510004387
-0.0048300000000000001,4.6212821655107135,-0.0012549759510004387
-0.0048287499999999997,4.6212821655107135,-0.0012549759510005894
-0.0048275000000000002,4.6212821655107135,-0.001586349140421754
-0.0048262499999999998,4.6285898411035848,-0.001586349140421754
-0.0048250000000000003,4.6249360033071509,-0.0012549759510005894
-0.0048237499999999999,4.6285898411035848,-0.001586349140421754
-0.0048225000000000004,4.6285898411035848,-0.001917722329842919
-0.00482125,4.6249360033071492,-0.0019177223298430697
-0.0048199999999999996,4.6139744899178465,-0.00092360276157942489
-0.0048187500000000001,4.6249360033071492,-0.001586349140421754
-0.0048174999999999997,4.6249360033071492,-0.001586349140421754
-0.0048162500000000002,4.6249360033071492,-0.001586349140421754
-0.0048149999999999998,4.6249360033071492,-0.0019177223298430697
-0.0048137500000000003,4.6212821655107152,-0.0015863491404219047
-0.0048124999999999999,4.6249360033071492,-0.001586349140421754
-0.0048112500000000004,4.6249360033071492,-0.0012549759510005894
-0.00481,4.6249360033071492,-0.00092360276157912348
-0.0048087499999999997,4.6212821655107135,-0.001254975951000288
-0.0048075000000000001,4.6212821655107135,-0.00092360276157912348
-0.0048062499999999998,4.6249360033071492,-0.0012549759510004387
-0.0048050000000000002,4.6285898411035848,-0.00092360276157912348
-0.0048037499999999999,4.6249360033071492,-0.001586349140421754
-0.0048025000000000003,4.6249360033071492,-0.0012549759510005894
-0.00480125,4.6249360033071492,-0.001586349140421754
-0.0047999999999999996,4.6212821655107152,-0.0012549759510005894
-0.0047987500000000001,4.6249360033071492,-0.001586349140421754
-0.0047974999999999997,4.6249360033071492,-0.001586349140421754
-0.0047962500000000002,4.6249360033071492,-0.001586349140421754
-0.0047949999999999998,4.6249360033071492,-0.001586349140421754
-0.0047937500000000003,4.6249360033071492,-0.0012549759510004387
-0.0047924999999999999,4.6249360033071492,-0.001586349140421754
-0.0047912500000000004,4.6212821655107152,-0.001586349140421754
-0.00479,4.6212821655107135,-0.0019177223298430697
-0.0047887499999999996,4.6285898411035831,-0.0012549759510004387
-0.0047875000000000001,4.6249360033071492,-0.0012549759510004387
-0.0047862499999999997,4.6212821655107152,-0.0015863491404216033
-0.0047850000000000002,4.6249360033071492,-0.0012549759510004387
-0.0047837499999999998,4.6322436789000205,-0.0012549759510004387
-0.0047825000000000003,4.6285898411035866,-0.0012549759510004387
-0.0047812499999999999,4.6322436789000205,-0.0012549759510004387
-0.0047800000000000004,4.6322436789000205,-0.0012549759510004387
-0.00477875,4.6249360033071492,-0.0012549759510004387
-0.0047774999999999996,4.6285898411035848,-0.0012549759510005894
-0.0047762500000000001,4.6285898411035848,-0.001586349140421754
-0.0047749999999999997,4.6249360033071492,-0.001586349140421754
-0.0047737500000000002,4.6212821655107135,-0.001586349140421754
-0.0047724999999999998,4.6249360033071492,-0.001586349140421754
-0.0047712500000000003,4.6285898411035831,-0.0012549759510005894
-0.0047699999999999999,4.6285898411035848,-0.0012549759510004387
-0.0047687500000000004,4.6285898411035848,-0.0012549759510004387
-0.0047675,4.6249360033071492,-0.001586349140421754
-0.0047662499999999997,4.6212821655107152,-0.0015863491404216033
-0.0047650000000000001,4.6249360033071492,-0.0012549759510004387
-0.0047637499999999998,4.6285898411035848,-0.0012549759510004387
-0.0047625000000000002,4.6322436789000205,-0.00092360276157912348
-0.0047612499999999999,4.6249360033071492,-0.0012549759510004387
-0.0047600000000000003,4.6249360033071492,-0.0012549759510004387
-0.00475875,4.6285898411035848,-0.001586349140421754
-0.0047574999999999996,4.6249360033071509,-0.0012549759510005894
-0.0047562500000000001,4.6285898411035848,-0.001586349140421754
-0.0047549999999999997,4.6249360033071474,-0.001586349140421754
-0.0047537500000000002,4.6212821655107135,-0.001586349140421754
-0.0047524999999999998,4.6249360033071492,-0.0012549759510004387
-0.0047512500000000003,4.6285898411035848,-0.0019177223298430697
-0.0047499999999999999,4.6322436789000205,-0.0019177223298430697
-0.0047487500000000004,4.6285898411035866,-0.0019177223298430697
-0.0047475,4.6249360033071492,-0.00092360276157912348
-0.0047462499999999996,4.6285898411035848,-0.0012549759510004387
-0.0047450000000000001,4.6285898411035848,-0.0012549759510004387
-0.0047437499999999997,4.6249360033071509,-0.00092360276157927418
-0.0047425000000000002,4.6285898411035848,-0.0012549759510004387
-0.0047412499999999998,4.6249360033071492,-0.001586349140421754
-0.0047400000000000003,4.6285898411035831,-0.001586349140421754
-0.0047387499999999999,4.6249360033071492,-0.0012549759510004387
-0.0047375000000000004,4.6249360033071492,-0.00092360276157927418
-0.00473625,4.6176283277142769,-0.001586349140421754
-0.0047349999999999996,4.6212821655107152,-0.0012549759510004387
-0.0047337500000000001,4.6249360033071492,-0.0012549759510004387
