MATLAB/SDA_i2c.csv

#Digilent WaveForms Oscilloscope Acquisition
#Device Name: Discovery2
#Serial Number: SN:210321A374C1
#Date Time: 2019-02-28 22:10:58.542
#Trigger:Source: Channel 1Type: EdgeCondition: RisingLevel: 1.9 VHyst.: AutoHoldOff: 0 s
#Channel 1: Range: 1 V/div Offset: 0 V
#Channel 2: Range: 500 mV/div Offset: 0 V

Time (s),Channel 1 (V),Channel 2 (V)
-0.00024780000000000006,3.1999392626971646,-0.0025804687086857002
-0.00024729999999999999,3.1999392626971646,-0.002911841898106865
-0.00024680000000000036,3.1999392626971646,-0.0025804687086858511
-0.00024630000000000029,3.1999392626971646,-0.002911841898106865
-0.00024580000000000023,3.1999392626971646,-0.0029118418981070155
-0.00024530000000000016,3.1962854249007289,-0.0029118418981070155
-0.0002448000000000001,3.1962854249007289,-0.0029118418981070155
-0.00024430000000000003,3.1999392626971663,-0.003574588276949496
-0.00024379999999999996,3.2035931004935989,-0.0032432150875284812
-0.00024330000000000033,3.1999392626971663,-0.0035745882769494955
-0.00024280000000000026,3.2035931004936007,-0.0035745882769496464
-0.0002423000000000002,3.2072469382900364,-0.0035745882769496464
-0.00024180000000000013,3.2035931004936007,-0.0029118418981070155
-0.00024130000000000006,3.1999392626971646,-0.0032432150875283308
-0.0002408,3.2035931004935989,-0.0032432150875284812
-0.00024030000000000037,3.1999392626971663,-0.0035745882769494955
-0.0002398000000000003,3.1962854249007306,-0.0035745882769496464
-0.00023930000000000023,3.1962854249007289,-0.0032432150875283308
-0.00023880000000000017,3.1999392626971646,-0.0035745882769496464
-0.0002383000000000001,3.1962854249007289,-0.0032432150875283308
-0.00023780000000000003,3.1999392626971663,-0.003574588276949345
-0.00023729999999999997,3.2035931004935989,-0.0029118418981070155
-0.00023680000000000033,3.1999392626971663,-0.0029118418981070155
-0.00023630000000000027,3.2035931004935989,-0.0029118418981070155
-0.0002358000000000002,3.2035931004936007,-0.0029118418981070155
-0.00023530000000000014,3.2035931004936007,-0.0032432150875283308
-0.00023480000000000007,3.2035931004936007,-0.0035745882769496464
-0.0002343,3.1999392626971646,-0.0035745882769497969
-0.00023379999999999994,3.1999392626971646,-0.0039059614663709621
-0.0002333000000000003,3.1999392626971646,-0.0039059614663709621
-0.00023280000000000024,3.1999392626971646,-0.0032432150875283308
-0.00023230000000000017,3.2035931004936007,-0.0029118418981070155
-0.0002318000000000001,3.1962854249007289,-0.0025804687086857002
-0.00023130000000000004,3.192631587104295,-0.0029118418981070155
-0.00023079999999999997,3.1962854249007289,-0.0029118418981073169
-0.00023030000000000034,3.1962854249007289,-0.003574588276949345
-0.00022980000000000027,3.1962854249007289,-0.0039059614663708112
-0.00022930000000000021,3.1999392626971646,-0.0032432150875283308
-0.00022880000000000014,3.1962854249007289,-0.0032432150875283308
-0.00022830000000000007,3.1926315871042932,-0.0035745882769496464
-0.00022780000000000001,3.1962854249007289,-0.0029118418981070155
-0.00022729999999999994,3.1962854249007306,-0.0029118418981070155
-0.00022680000000000031,3.1999392626971628,-0.0029118418981070155
-0.00022630000000000024,3.2035931004936007,-0.0029118418981070155
-0.00022580000000000018,3.1999392626971646,-0.0032432150875283308
-0.00022530000000000011,3.1962854249007289,-0.0035745882769496464
-0.00022480000000000004,3.1962854249007289,-0.0032432150875283308
-0.00022429999999999998,3.1999392626971646,-0.0032432150875283308
-0.00022380000000000034,3.1999392626971646,-0.0032432150875283308
-0.00022330000000000028,3.2035931004935989,-0.002911841898107166
-0.00022280000000000021,3.1999392626971646,-0.0032432150875283308
-0.00022230000000000015,3.1962854249007289,-0.0029118418981070155
-0.00022180000000000008,3.1999392626971646,-0.0029118418981070155
-0.00022130000000000001,3.2035931004936007,-0.0032432150875281803
-0.00022079999999999995,3.2035931004935989,-0.002911841898107166
-0.00022030000000000031,3.1999392626971663,-0.0032432150875281798
-0.00021980000000000025,3.1999392626971646,-0.0029118418981070155
-0.00021930000000000018,3.2035931004936007,-0.0029118418981070155
-0.00021880000000000011,3.2035931004936007,-0.0029118418981070155
-0.00021830000000000005,3.1962854249007289,-0.0029118418981070155
-0.00021779999999999998,3.1962854249007289,-0.0032432150875284812
-0.00021730000000000035,3.1962854249007289,-0.0035745882769494955
-0.00021680000000000028,3.1999392626971628,-0.0029118418981073169
-0.00021630000000000022,3.1962854249007289,-0.0029118418981070155
-0.00021580000000000015,3.1962854249007289,-0.0029118418981070155
-0.00021530000000000008,3.1962854249007289,-0.0032432150875283308
-0.00021480000000000002,3.1962854249007289,-0.0029118418981070155
-0.00021429999999999995,3.1962854249007289,-0.002911841898107166
-0.00021380000000000032,3.1962854249007289,-0.0032432150875281798
-0.00021330000000000025,3.1999392626971646,-0.0029118418981070155
-0.00021280000000000019,3.2035931004936007,-0.0032432150875283308
-0.00021230000000000012,3.1999392626971646,-0.0032432150875283308
-0.00021180000000000005,3.1999392626971646,-0.0032432150875283308
-0.00021129999999999999,3.1962854249007289,-0.0032432150875283308
-0.00021080000000000035,3.1962854249007289,-0.0032432150875283308
-0.00021030000000000029,3.1962854249007289,-0.0035745882769494955
-0.00020980000000000022,3.1962854249007289,-0.0032432150875283308
-0.00020930000000000015,3.1962854249007289,-0.0029118418981070155
-0.00020880000000000009,3.1962854249007289,-0.0029118418981070155
-0.00020830000000000002,3.1962854249007271,-0.0032432150875283308
-0.00020779999999999996,3.192631587104295,-0.0032432150875284812
-0.00020730000000000032,3.1962854249007271,-0.0035745882769494955
-0.00020680000000000026,3.1962854249007289,-0.0032432150875283308
-0.00020630000000000019,3.1926315871042932,-0.0029118418981070155
-0.00020580000000000012,3.1962854249007289,-0.0032432150875283308
-0.00020530000000000006,3.1999392626971646,-0.0025804687086857002
-0.00020479999999999999,3.1999392626971663,-0.0025804687086858507
-0.00020430000000000036,3.2035931004935989,-0.002911841898106865
-0.00020380000000000029,3.1999392626971663,-0.0029118418981070155
-0.00020330000000000023,3.1999392626971646,-0.0025804687086857002
-0.00020280000000000016,3.1999392626971646,-0.0029118418981070155
-0.00020230000000000009,3.1999392626971646,-0.0032432150875283308
-0.00020180000000000003,3.2035931004936007,-0.0029118418981073169
-0.00020129999999999996,3.2035931004936007,-0.0035745882769496464
-0.00020080000000000033,3.2035931004936007,-0.0035745882769496464
-0.00020030000000000026,3.1999392626971646,-0.0032432150875283308
-0.00019980000000000019,3.2035931004936007,-0.0032432150875283308
-0.00019930000000000013,3.1999392626971646,-0.0029118418981070155
-0.00019880000000000006,3.1962854249007289,-0.0032432150875283308
-0.0001983,3.1962854249007306,-0.002911841898106865
-0.00019780000000000036,3.1999392626971628,-0.0025804687086858511
-0.0001973000000000003,3.1962854249007306,-0.002911841898106865
-0.00019680000000000023,3.1999392626971646,-0.0029118418981070155
-0.00019630000000000016,3.1999392626971646,-0.0025804687086857002
-0.0001958000000000001,3.1962854249007289,-0.0029118418981070155
-0.00019530000000000003,3.1999392626971628,-0.0029118418981070155
-0.00019479999999999996,3.1962854249007271,-0.0029118418981073169
-0.00019430000000000033,3.192631587104295,-0.003574588276949345
-0.00019380000000000027,3.188977749307857,-0.0032432150875283308
-0.0001933000000000002,3.188977749307857,-0.0032432150875283308
-0.00019280000000000013,3.1926315871042932,-0.0032432150875283308
-0.00019230000000000007,3.1962854249007289,-0.0029118418981070155
-0.0001918,3.1962854249007289,-0.0025804687086858507
-0.00019130000000000037,3.1962854249007289,-0.002911841898106865
-0.0001908000000000003,3.1962854249007289,-0.0032432150875281798
-0.00019030000000000023,3.1926315871042932,-0.0032432150875283308
-0.00018980000000000017,3.1926315871042932,-0.0032432150875283308
-0.0001893000000000001,3.1926315871042932,-0.0032432150875283308
-0.00018880000000000004,3.1962854249007306,-0.0032432150875283308
-0.00018829999999999997,3.1999392626971628,-0.0032432150875281803
-0.00018780000000000034,3.1962854249007306,-0.002911841898107166
-0.00018730000000000027,3.1962854249007289,-0.0029118418981070155
-0.0001868000000000002,3.1962854249007289,-0.0029118418981070155
-0.00018630000000000014,3.1962854249007289,-0.0029118418981070155
-0.00018580000000000007,3.1962854249007289,-0.0029118418981070155
-0.0001853,3.2035931004936007,-0.0025804687086858507
-0.00018479999999999994,3.2035931004935989,-0.002911841898107166
-0.00018430000000000031,3.1999392626971663,-0.0032432150875281798
-0.00018380000000000024,3.1999392626971646,-0.0029118418981070155
-0.00018330000000000017,3.1962854249007289,-0.0029118418981070155
-0.00018280000000000011,3.1962854249007289,-0.0032432150875283308
-0.00018230000000000004,3.1999392626971646,-0.0032432150875283308
-0.00018179999999999997,3.2035931004936007,-0.0035745882769496464
-0.00018130000000000034,3.2035931004936007,-0.0035745882769496464
-0.00018080000000000027,3.2035931004936007,-0.0032432150875284817
-0.00018030000000000021,3.2035931004936007,-0.0035745882769496464
-0.00017980000000000014,3.1999392626971646,-0.0032432150875283308
-0.00017930000000000008,3.1962854249007289,-0.0032432150875283308
-0.00017880000000000001,3.1999392626971646,-0.0032432150875281803
-0.00017829999999999994,3.1999392626971646,-0.002911841898107166
-0.00017780000000000031,3.1999392626971646,-0.0032432150875281798
-0.00017730000000000024,3.1999392626971646,-0.0035745882769496464
-0.00017680000000000018,3.1962854249007289,-0.0032432150875283308
-0.00017630000000000011,3.1962854249007289,-0.0035745882769496464
-0.00017580000000000004,3.1926315871042932,-0.0035745882769496464
-0.00017529999999999998,3.1889777493078602,-0.0035745882769497969
-0.00017480000000000035,3.1962854249007258,-0.0039059614663708112
-0.00017430000000000028,3.192631587104295,-0.0032432150875286322
-0.00017380000000000021,3.1962854249007289,-0.0029118418981070155
-0.00017330000000000015,3.1962854249007289,-0.0029118418981070155
-0.00017280000000000008,3.2035931004936007,-0.0029118418981070155
-0.00017230000000000001,3.1999392626971646,-0.0025804687086857002
-0.00017179999999999995,3.1999392626971663,-0.0025804687086857002
-0.00017130000000000031,3.2035931004935989,-0.0025804687086857002
-0.00017080000000000025,3.1962854249007289,-0.0032432150875283308
-0.00017030000000000018,3.1962854249007289,-0.0029118418981070155
-0.00016980000000000012,3.1962854249007289,-0.0032432150875283308
-0.00016930000000000005,3.1926315871042932,-0.0029118418981070155
-0.00016879999999999998,3.1926315871042932,-0.0032432150875283308
-0.00016830000000000035,3.1926315871042932,-0.0032432150875283308
-0.00016780000000000028,3.1926315871042932,-0.0032432150875283308
-0.00016730000000000022,3.1962854249007289,-0.0029118418981070155
-0.00016680000000000015,3.1962854249007289,-0.0029118418981070155
-0.00016630000000000008,3.1962854249007289,-0.0025804687086857002
-0.00016580000000000002,3.1962854249007306,-0.0025804687086860016
-0.00016529999999999995,3.1999392626971663,-0.0032432150875283308
-0.00016480000000000032,3.2035931004935989,-0.0032432150875283308
-0.00016430000000000025,3.1999392626971646,-0.0035745882769496464
-0.00016380000000000019,3.1999392626971646,-0.0032432150875283308
-0.00016330000000000012,3.2035931004936007,-0.0032432150875283308
-0.00016280000000000005,3.1999392626971646,-0.0025804687086857002
-0.00016229999999999999,3.1999392626971663,-0.0025804687086858507
-0.00016180000000000035,3.2035931004935989,-0.002911841898106865
-0.00016130000000000029,3.2072469382900346,-0.0032432150875281798
-0.00016080000000000022,3.2035931004936007,-0.0032432150875283308
-0.00016030000000000016,3.1999392626971646,-0.0032432150875283308
-0.00015980000000000009,3.1999392626971646,-0.0029118418981070155
-0.00015930000000000002,3.1999392626971663,-0.0032432150875281803
-0.00015879999999999996,3.2035931004935989,-0.0029118418981070155
-0.00015830000000000032,3.1999392626971663,-0.0029118418981070155
-0.00015780000000000026,3.1999392626971646,-0.0025804687086857002
-0.00015730000000000019,3.1962854249007289,-0.0029118418981070155
-0.00015680000000000013,3.2035931004936007,-0.0029118418981070155
-0.00015630000000000006,3.1999392626971646,-0.0029118418981070155
-0.00015579999999999999,3.1962854249007306,-0.002911841898107166
-0.00015530000000000036,3.1999392626971628,-0.0032432150875281798
-0.00015480000000000029,3.1962854249007306,-0.0032432150875283308
-0.00015430000000000023,3.1962854249007289,-0.0032432150875283308
-0.00015380000000000016,3.1926315871042932,-0.0029118418981070155
-0.00015330000000000009,3.1926315871042932,-0.0025804687086857002
-0.00015280000000000024,3.1999392626971646,-0.0029118418981070155
-0.00015230000000000018,3.1999392626971646,-0.0029118418981070155
-0.00015180000000000011,3.1999392626971646,-0.0029118418981070155
-0.00015130000000000005,3.1999392626971646,-0.0032432150875283308
-0.0001508000000000002,3.1962854249007289,-0.0029118418981070155
-0.00015030000000000013,3.1962854249007289,-0.0029118418981070155
-0.00014980000000000006,3.1962854249007289,-0.0025804687086857002
-0.00014930000000000021,3.1962854249007289,-0.0025804687086857002
-0.00014880000000000015,3.1999392626971646,-0.0029118418981070155
-0.00014830000000000008,3.1999392626971646,-0.0029118418981070155
-0.00014780000000000023,3.1999392626971646,-0.0025804687086857002
-0.00014730000000000017,3.1999392626971646,-0.0029118418981070155
-0.0001468000000000001,3.1962854249007289,-0.0029118418981070155
-0.00014630000000000025,3.1999392626971646,-0.0032432150875283308
-0.00014580000000000018,3.2035931004936007,-0.0032432150875283308
-0.00014530000000000012,3.1999392626971646,-0.0032432150875283308
-0.00014480000000000005,3.1962854249007289,-0.0035745882769496464
-0.0001443000000000002,3.1962854249007289,-0.0032432150875283308
-0.00014380000000000013,3.1926315871042932,-0.0029118418981070155
-0.00014330000000000007,3.1926315871042932,-0.0029118418981070155
-0.00014280000000000022,3.1962854249007289,-0.0025804687086857002
-0.00014230000000000015,3.1999392626971646,-0.0029118418981070155
-0.00014180000000000009,3.1962854249007289,-0.0032432150875283308
-0.00014130000000000024,3.1962854249007289,-0.0032432150875283308
-0.00014080000000000017,3.1999392626971646,-0.0025804687086857002
-0.0001403000000000001,3.2035931004936007,-0.0032432150875283308
-0.00013980000000000025,3.2035931004936007,-0.0032432150875283308
-0.00013930000000000019,3.1999392626971646,-0.0032432150875283308
-0.00013880000000000012,3.1962854249007289,-0.0029118418981070155
-0.00013830000000000005,3.1962854249007289,-0.0029118418981070155
-0.00013780000000000021,3.1926315871042932,-0.0032432150875283308
-0.00013730000000000014,3.1962854249007289,-0.0032432150875283308
-0.00013680000000000007,3.1926315871042932,-0.0029118418981070155
-0.00013630000000000022,3.1962854249007289,-0.0032432150875283308
-0.00013580000000000016,3.1999392626971646,-0.0032432150875283308
-0.00013530000000000009,3.1999392626971646,-0.0029118418981070155
-0.00013480000000000024,3.1999392626971646,-0.0029118418981070155
-0.00013430000000000017,3.1999392626971646,-0.0032432150875283308
-0.00013380000000000011,3.1999392626971646,-0.0029118418981070155
-0.00013330000000000026,3.1962854249007289,-0.0032432150875283308
-0.00013280000000000019,3.1999392626971646,-0.0029118418981070155
-0.00013230000000000013,3.2035931004936007,-0.0032432150875283308
-0.00013180000000000006,3.1999392626971646,-0.0029118418981070155
-0.00013130000000000021,3.1999392626971646,-0.0029118418981070155
-0.00013080000000000014,3.1926315871042932,-0.0029118418981070155
-0.00013030000000000008,3.1926315871042932,-0.0029118418981070155
-0.00012980000000000023,3.1962854249007289,-0.0029118418981070155
-0.00012930000000000016,3.1999392626971646,-0.0025804687086857002
-0.00012880000000000009,3.1962854249007289,-0.0029118418981070155
-0.00012830000000000025,3.1962854249007289,-0.0025804687086857002
-0.00012780000000000018,3.1962854249007289,-0.0029118418981070155
-0.00012730000000000011,3.1962854249007289,-0.0025804687086857002
-0.00012680000000000005,3.1999392626971646,-0.0029118418981070155
-0.0001263000000000002,3.1999392626971646,-0.0029118418981070155
-0.00012580000000000013,3.1999392626971646,-0.0032432150875283308
-0.00012530000000000006,3.1999392626971646,-0.0025804687086857002
-0.00012480000000000021,3.2035931004936007,-0.0025804687086857002
-0.00012430000000000015,3.2035931004936007,-0.0025804687086857002
-0.00012380000000000008,3.2035931004936007,-0.002249095519264385
-0.00012330000000000023,3.2035931004936007,-0.002249095519264385
-0.00012280000000000017,3.1999392626971646,-0.0025804687086857002
-0.0001223000000000001,3.1962854249007289,-0.0029118418981070155
-0.00012180000000000025,3.1999392626971646,-0.0032432150875283308
-0.00012130000000000018,3.1999392626971646,-0.0032432150875283308
-0.00012080000000000012,3.1999392626971646,-0.0029118418981070155
-0.00012030000000000005,3.1999392626971646,-0.0029118418981070155
-0.0001198000000000002,3.1926315871042932,-0.0025804687086857002
-0.00011930000000000014,3.1999392626971646,-0.0032432150875283308
-0.00011880000000000007,3.1962854249007289,-0.0029118418981070155
-0.00011830000000000022,3.1926315871042932,-0.0025804687086857002
-0.00011780000000000015,3.1962854249007289,-0.0029118418981070155
-0.00011730000000000009,3.1962854249007289,-0.0029118418981070155
-0.00011680000000000024,3.1926315871042932,-0.0032432150875283308
-0.00011630000000000017,3.1962854249007289,-0.0029118418981070155
-0.0001158000000000001,3.1962854249007289,-0.0025804687086857002
-0.00011530000000000025,3.1999392626971646,-0.0025804687086857002
-0.00011480000000000019,3.1962854249007289,-0.0029118418981070155
-0.00011430000000000012,3.1962854249007289,-0.0029118418981070155
-0.00011380000000000006,3.1999392626971646,-0.0025804687086857002
-0.00011330000000000021,3.2035931004936007,-0.0029118418981070155
-0.00011280000000000014,3.2035931004936007,-0.0025804687086857002
-0.00011230000000000007,3.1962854249007289,-0.0025804687086857002
-0.00011180000000000022,3.1962854249007289,-0.0029118418981070155
-0.00011130000000000016,3.1962854249007289,-0.0029118418981070155
-0.00011080000000000009,3.1999392626971646,-0.0032432150875283308
-0.00011030000000000024,3.2035931004936007,-0.0032432150875283308
-0.00010980000000000018,3.1999392626971646,-0.0029118418981070155
-0.00010930000000000011,3.1999392626971646,-0.0029118418981070155
-0.00010880000000000026,3.1999392626971646,-0.0032432150875283308
-0.00010830000000000019,3.1999392626971646,-0.0032432150875283308
-0.00010780000000000013,3.1962854249007289,-0.0025804687086857002
-0.00010730000000000006,3.1962854249007289,-0.0025804687086857002
-0.00010680000000000021,3.1999392626971646,-0.0029118418981070155
-0.00010630000000000014,3.1926315871042932,-0.0029118418981070155
-0.00010580000000000008,3.1926315871042932,-0.0029118418981070155
-0.00010530000000000023,3.1962854249007289,-0.0032432150875283308
-0.00010480000000000016,3.2035931004936007,-0.0032432150875283308
-0.0001043000000000001,3.1999392626971646,-0.0032432150875283308
-0.00010380000000000025,3.1999392626971646,-0.0025804687086857002
-0.00010330000000000018,3.1962854249007289,-0.0029118418981070155
-0.00010280000000000011,3.1962854249007289,-0.0032432150875283308
-0.00010230000000000005,3.1962854249007289,-0.0029118418981070155
-0.0001018000000000002,3.1926315871042932,-0.0025804687086857002
-0.00010130000000000013,3.1999392626971646,-0.002249095519264385
-0.00010080000000000006,3.1962854249007289,-0.0025804687086857002
-0.00010030000000000022,3.1962854249007289,-0.0032432150875283308
-9.9800000000000149e-05,3.1962854249007289,-0.0025804687086857002
-9.9300000000000083e-05,3.1926315871042932,-0.0025804687086857002
-9.8800000000000233e-05,3.1962854249007289,-0.0029118418981070155
